"Image URL","Image Title","Image Caption","Image Description","Image Alt Text","Image Featured","Attachment URL"
https://eldercarematters.com/wp-content/uploads/job-manager-uploads/featured_image/2017/08/IMG_3017.jpg,"Norris Elder Services, LLC",,,,https://eldercarematters.com/wp-content/uploads/job-manager-uploads/featured_image/2017/08/IMG_3017.jpg,
https://eldercarematters.com/wp-content/uploads/job-manager-uploads/company_avatar/2017/08/LogoFB.png,"Assisted Living Locators",,,,,
https://eldercarematters.com/wp-content/uploads/job-manager-uploads/featured_image/2017/08/Gallery-Image17.jpg|https://eldercarematters.com/wp-content/uploads/job-manager-uploads/company_avatar/2017/08/East-Shea-Assisted-Living-Logo.png,"East Shea Assisted Living|East Shea Assisted Living",|,|,|,https://eldercarematters.com/wp-content/uploads/job-manager-uploads/featured_image/2017/08/Gallery-Image17.jpg,
,,,,,,
,,,,,,
https://eldercarematters.com/wp-content/uploads/2017/10/drussell.jpg,drussell.jpg,,,,,
https://eldercarematters.com/wp-content/uploads/2017/10/vzolezzi.jpg,vzolezzi.jpg,,,,,
https://eldercarematters.com/wp-content/uploads/2017/10/jbennett.jpg,jbennett.jpg,,,,,
https://eldercarematters.com/wp-content/uploads/2017/10/rschlager.jpg,rschlager.jpg,,,,,
https://eldercarematters.com/wp-content/uploads/2017/10/oantonini.jpg,oantonini.jpg,,,,,
https://eldercarematters.com/wp-content/uploads/2017/10/rnairin.jpg,rnairin.jpg,,,,,
,,,,,,
https://eldercarematters.com/wp-content/uploads/2017/10/mevans.jpg,mevans.jpg,,,,,
https://eldercarematters.com/wp-content/uploads/2017/10/hweatherby.gif,hweatherby.gif,,,,,
https://eldercarematters.com/wp-content/uploads/2017/10/jrivard.gif,jrivard.gif,,,,,
https://eldercarematters.com/wp-content/uploads/2017/10/sbraud.jpg,sbraud.jpg,,,,,
https://eldercarematters.com/wp-content/uploads/2017/10/gkantor.jpg,gkantor.jpg,,,,,
https://eldercarematters.com/wp-content/uploads/2017/10/selder.gif,selder.gif,,,,,
https://eldercarematters.com/wp-content/uploads/2017/10/mtucker.gif,mtucker.gif,,,,,
https://eldercarematters.com/wp-content/uploads/2017/10/drosenberg.gif,drosenberg.gif,,,,,
,,,,,,
https://eldercarematters.com/wp-content/uploads/2017/10/rdickinson.gif,rdickinson.gif,,,,,
,,,,,,
https://eldercarematters.com/wp-content/uploads/2017/10/mcorliss.jpg|https://eldercarematters.com/wp-content/uploads/2018/02/mcorliss.jpg,mcorliss.jpg|mcorliss,|,|,"|elder care directory",,
https://eldercarematters.com/wp-content/uploads/2017/10/lmclane.jpg,lmclane.jpg,,,,,
https://eldercarematters.com/wp-content/uploads/2017/10/lspiglanin.jpg,lspiglanin.jpg,,,,,
https://eldercarematters.com/wp-content/uploads/2017/10/pbrown.jpg,pbrown.jpg,,,,,
https://eldercarematters.com/wp-content/uploads/2017/10/clafond.jpg,clafond.jpg,,,,,
https://eldercarematters.com/wp-content/uploads/2017/10/jbooth.jpg,jbooth.jpg,,,,,
https://eldercarematters.com/wp-content/uploads/2017/10/nlane.jpg,nlane.jpg,,,,,
https://eldercarematters.com/wp-content/uploads/2017/10/dskaff.gif,dskaff.gif,,,,,
https://eldercarematters.com/wp-content/uploads/2017/10/tszatkowski.jpg,tszatkowski.jpg,,,,,
https://eldercarematters.com/wp-content/uploads/2017/10/jjaneiro.gif,jjaneiro.gif,,,,,
https://eldercarematters.com/wp-content/uploads/2017/10/cwalker.gif,cwalker.gif,,,,,
,,,,,,
https://eldercarematters.com/wp-content/uploads/2017/10/npaschke.jpg,npaschke.jpg,,,,,
https://eldercarematters.com/wp-content/uploads/2017/10/sbailey.jpg,sbailey.jpg,,,,,
https://eldercarematters.com/wp-content/uploads/job-manager-uploads/featured_image/2018/01/home-page-banner.jpg|https://eldercarematters.com/wp-content/uploads/2017/10/jsiebert-e1517521482914.jpg|https://eldercarematters.com/wp-content/uploads/2017/10/jsiebert-e1518445495419.jpg|https://eldercarematters.com/wp-content/uploads/job-manager-uploads/featured_image/2018/01/home-page-banner.jpg,"Law Office of James C. Siebert &amp; Associates, P.C.|jsiebert.jpg|The Law Office of James C. Siebert &amp; Associates, P.C.|The Law Office of James C. Siebert &amp; Associates, P.C.",|||,|||,"||ElderCare Matters Directory|",https://eldercarematters.com/wp-content/uploads/job-manager-uploads/featured_image/2018/01/home-page-banner.jpg,
https://eldercarematters.com/wp-content/uploads/2017/10/jruggiero.gif,jruggiero.gif,,,,,
,,,,,,
,,,,,,
https://eldercarematters.com/wp-content/uploads/2017/10/rwayne.gif,rwayne.gif,,,,,
https://eldercarematters.com/wp-content/uploads/2017/10/hfrenette.jpg,hfrenette.jpg,,,,,
https://eldercarematters.com/wp-content/uploads/2017/10/rhaddleton.jpg,rhaddleton.jpg,,,,,
https://eldercarematters.com/wp-content/uploads/2017/10/rslutsky.jpg,rslutsky.jpg,,,,,
,,,,,,
,,,,,,
https://eldercarematters.com/wp-content/uploads/2017/10/vwright.jpg,vwright.jpg,,,,,
,,,,,,
,,,,,,
https://eldercarematters.com/wp-content/uploads/2017/10/dolsen.gif,dolsen.gif,,,,,
https://eldercarematters.com/wp-content/uploads/2017/10/dbaker.jpg,dbaker.jpg,,,,,
https://eldercarematters.com/wp-content/uploads/2017/10/mmcguire.jpg,mmcguire.jpg,,,,,
https://eldercarematters.com/wp-content/uploads/2017/10/kjackson.jpg,kjackson.jpg,,,,,
https://eldercarematters.com/wp-content/uploads/2017/10/rvincente.gif,rvincente.gif,,,,,
,,,,,,
https://eldercarematters.com/wp-content/uploads/2017/10/kshute.jpg,kshute.jpg,,,,,
,,,,,,
,,,,,,
,,,,,,
,,,,,,
https://eldercarematters.com/wp-content/uploads/2017/10/gsimons.jpg,gsimons.jpg,,,,,
,,,,,,
,,,,,,
https://eldercarematters.com/wp-content/uploads/2017/10/mettinger.jpg,mettinger.jpg,,,,,
https://eldercarematters.com/wp-content/uploads/2017/10/btully.jpg,btully.jpg,,,,,
https://eldercarematters.com/wp-content/uploads/2017/10/bdailey.jpg,bdailey.jpg,,,,,
,,,,,,
,,,,,,
,,,,,,
https://eldercarematters.com/wp-content/uploads/2017/10/whesch.gif,whesch.gif,,,,,
,,,,,,
,,,,,,
https://eldercarematters.com/wp-content/uploads/2017/10/rfaison.jpg,rfaison.jpg,,,,,
,,,,,,
https://eldercarematters.com/wp-content/uploads/2017/10/dostrove.jpg,dostrove.jpg,,,,,
https://eldercarematters.com/wp-content/uploads/2017/10/dtisdale.jpg,dtisdale.jpg,,,,,
https://eldercarematters.com/wp-content/uploads/2017/10/psmith.jpg,psmith.jpg,,,,,
https://eldercarematters.com/wp-content/uploads/2017/10/mleslie.jpg,mleslie.jpg,,,,,
,,,,,,
,,,,,,
,,,,,,
,,,,,,
https://eldercarematters.com/wp-content/uploads/2017/10/pwilkins.jpg,pwilkins.jpg,,,,,
https://eldercarematters.com/wp-content/uploads/2017/10/ssiegel.jpg|https://eldercarematters.com/wp-content/uploads/2017/10/ssiegel-1.jpg,ssiegel.jpg|ssiegel,|,|,|,,
https://eldercarematters.com/wp-content/uploads/2017/10/homehelpers.jpg,homehelpers.jpg,,,,,
https://eldercarematters.com/wp-content/uploads/2017/10/ccollins.jpg,ccollins.jpg,,,,,
,,,,,,
https://eldercarematters.com/wp-content/uploads/2017/10/mpayne.jpg,mpayne.jpg,,,,,
,,,,,,
,,,,,,
https://eldercarematters.com/wp-content/uploads/2017/10/ssilverberg.jpg,ssilverberg.jpg,,,,,
https://eldercarematters.com/wp-content/uploads/2017/10/bmiller.jpg,bmiller.jpg,,,,,
https://eldercarematters.com/wp-content/uploads/2017/10/gguertin.gif,gguertin.gif,,,,,
https://eldercarematters.com/wp-content/uploads/2017/10/rfatoullah.jpg,rfatoullah.jpg,,,,,
https://eldercarematters.com/wp-content/uploads/2017/10/lknapp.jpg,lknapp.jpg,,,,,
https://eldercarematters.com/wp-content/uploads/2017/10/rstelletello.jpg,rstelletello.jpg,,,,,
,,,,,,
https://eldercarematters.com/wp-content/uploads/2017/10/kpillion.jpg,kpillion.jpg,,,,,
https://eldercarematters.com/wp-content/uploads/2017/10/jcampbell.jpg,jcampbell.jpg,,,,,
https://eldercarematters.com/wp-content/uploads/2017/10/ffee.jpg,ffee.jpg,,,,,
https://eldercarematters.com/wp-content/uploads/2017/10/bapplegate.jpg,bapplegate.jpg,,,,,
https://eldercarematters.com/wp-content/uploads/2017/10/apitock.jpg,apitock.jpg,,,,,
https://eldercarematters.com/wp-content/uploads/2017/10/ahays.jpg,ahays.jpg,,,,,
https://eldercarematters.com/wp-content/uploads/2017/10/msparagna.jpg,msparagna.jpg,,,,,
https://eldercarematters.com/wp-content/uploads/2017/10/sabrams.jpg,sabrams.jpg,,,,,
https://eldercarematters.com/wp-content/uploads/2017/10/barbarabrown.jpg,barbarabrown.jpg,,,,,
https://eldercarematters.com/wp-content/uploads/2017/10/coldham.jpg,coldham.jpg,,,,,
https://eldercarematters.com/wp-content/uploads/2017/10/nburner.jpg,nburner.jpg,,,,,
,,,,,,
,,,,,,
,,,,,,
,,,,,,
,,,,,,
,,,,,,
,,,,,,
,,,,,,
,,,,,,
,,,,,,
,,,,,,
,,,,,,
,,,,,,
,,,,,,
,,,,,,
,,,,,,
,,,,,,
,,,,,,
,,,,,,
,,,,,,
,,,,,,
,,,,,,
,,,,,,
,,,,,,
,,,,,,
,,,,,,
,,,,,,
,,,,,,
,,,,,,
,,,,,,
,,,,,,
,,,,,,
,,,,,,
,,,,,,
,,,,,,
,,,,,,
,,,,,,
,,,,,,
,,,,,,
,,,,,,
,,,,,,
,,,,,,
,,,,,,
,,,,,,
,,,,,,
,,,,,,
,,,,,,
,,,,,,
,,,,,,
,,,,,,
,,,,,,
,,,,,,
,,,,,,
,,,,,,
,,,,,,
,,,,,,
,,,,,,
,,,,,,
,,,,,,
,,,,,,
,,,,,,
,,,,,,
,,,,,,
,,,,,,
,,,,,,
,,,,,,
,,,,,,
,,,,,,
,,,,,,
,,,,,,
,,,,,,
,,,,,,
,,,,,,
,,,,,,
,,,,,,
,,,,,,
,,,,,,
,,,,,,
,,,,,,
,,,,,,
,,,,,,
,,,,,,
,,,,,,
,,,,,,
,,,,,,
,,,,,,
,,,,,,
,,,,,,
,,,,,,
,,,,,,
,,,,,,
,,,,,,
,,,,,,
,,,,,,
,,,,,,
,,,,,,
,,,,,,
,,,,,,
,,,,,,
,,,,,,
,,,,,,
,,,,,,
,,,,,,
,,,,,,
,,,,,,
,,,,,,
,,,,,,
,,,,,,
,,,,,,
,,,,,,
,,,,,,
,,,,,,
,,,,,,
,,,,,,
,,,,,,
,,,,,,
,,,,,,
,,,,,,
,,,,,,
,,,,,,
,,,,,,
,,,,,,
,,,,,,
,,,,,,
,,,,,,
,,,,,,
,,,,,,
,,,,,,
,,,,,,
,,,,,,
,,,,,,
,,,,,,
,,,,,,
,,,,,,
,,,,,,
,,,,,,
,,,,,,
,,,,,,
,,,,,,
,,,,,,
,,,,,,
,,,,,,
,,,,,,
,,,,,,
,,,,,,
,,,,,,
,,,,,,
,,,,,,
,,,,,,
,,,,,,
,,,,,,
,,,,,,
,,,,,,
,,,,,,
,,,,,,
,,,,,,
,,,,,,
,,,,,,
,,,,,,
,,,,,,
,,,,,,
,,,,,,
,,,,,,
,,,,,,
,,,,,,
,,,,,,
,,,,,,
,,,,,,
,,,,,,
,,,,,,
,,,,,,
,,,,,,
,,,,,,
,,,,,,
,,,,,,
,,,,,,
,,,,,,
,,,,,,
,,,,,,
,,,,,,
,,,,,,
,,,,,,
,,,,,,
,,,,,,
,,,,,,
,,,,,,
,,,,,,
,,,,,,
,,,,,,
,,,,,,
,,,,,,
,,,,,,
,,,,,,
,,,,,,
,,,,,,
,,,,,,
,,,,,,
,,,,,,
,,,,,,
,,,,,,
,,,,,,
,,,,,,
,,,,,,
,,,,,,
,,,,,,
,,,,,,
,,,,,,
,,,,,,
,,,,,,
,,,,,,
,,,,,,
,,,,,,
,,,,,,
,,,,,,
,,,,,,
,,,,,,
,,,,,,
,,,,,,
,,,,,,
,,,,,,
,,,,,,
,,,,,,
,,,,,,
,,,,,,
,,,,,,
,,,,,,
,,,,,,
,,,,,,
,,,,,,
,,,,,,
,,,,,,
,,,,,,
,,,,,,
,,,,,,
,,,,,,
,,,,,,
,,,,,,
,,,,,,
,,,,,,
,,,,,,
,,,,,,
,,,,,,
,,,,,,
,,,,,,
,,,,,,
,,,,,,
,,,,,,
,,,,,,
,,,,,,
,,,,,,
,,,,,,
,,,,,,
,,,,,,
,,,,,,
,,,,,,
,,,,,,
,,,,,,
,,,,,,
,,,,,,
,,,,,,
,,,,,,
,,,,,,
,,,,,,
,,,,,,
,,,,,,
,,,,,,
,,,,,,
,,,,,,
,,,,,,
,,,,,,
,,,,,,
,,,,,,
,,,,,,
,,,,,,
,,,,,,
,,,,,,
,,,,,,
,,,,,,
,,,,,,
,,,,,,
,,,,,,
,,,,,,
,,,,,,
,,,,,,
,,,,,,
,,,,,,
,,,,,,
,,,,,,
,,,,,,
,,,,,,
,,,,,,
,,,,,,
,,,,,,
,,,,,,
,,,,,,
,,,,,,
,,,,,,
,,,,,,
,,,,,,
,,,,,,
,,,,,,
,,,,,,
,,,,,,
,,,,,,
,,,,,,
https://eldercarematters.com/wp-content/uploads/2017/10/majacobs.jpg,majacobs.jpg,,,,,
https://eldercarematters.com/wp-content/uploads/2017/10/kjensen.jpg,"KKJ Consulting, LLC",,,,,
,,,,,,
,,,,,,
,,,,,,
,,,,,,
,,,,,,
,,,,,,
,,,,,,
,,,,,,
,,,,,,
,,,,,,
,,,,,,
,,,,,,
,,,,,,
,,,,,,
,,,,,,
,,,,,,
,,,,,,
,,,,,,
,,,,,,
,,,,,,
,,,,,,
,,,,,,
,,,,,,
,,,,,,
,,,,,,
,,,,,,
https://eldercarematters.com/wp-content/uploads/2017/10/ddabrowski.gif,ddabrowski,,,,,
,,,,,,
https://eldercarematters.com/wp-content/uploads/job-manager-uploads/featured_image/2017/10/facebook-caregiver-ad.jpg|https://eldercarematters.com/wp-content/uploads/job-manager-uploads/company_avatar/2017/10/440logo.png,HomeCare.com|HomeCare.com,|,|,|,https://eldercarematters.com/wp-content/uploads/job-manager-uploads/featured_image/2017/10/facebook-caregiver-ad.jpg,
https://eldercarematters.com/wp-content/uploads/job-manager-uploads/featured_image/2017/10/B14795_Grace-Avail-At-Home-LLC_Logo_01.png|https://eldercarematters.com/wp-content/uploads/job-manager-uploads/company_avatar/2017/10/B14795_Grace-Avail-At-Home-LLC_Logo_01.png,"Grace Avail At Home, LLC|Grace Avail At Home, LLC",|,|,|,https://eldercarematters.com/wp-content/uploads/job-manager-uploads/featured_image/2017/10/B14795_Grace-Avail-At-Home-LLC_Logo_01.png,
https://eldercarematters.com/wp-content/uploads/job-manager-uploads/featured_image/2017/10/sign_2016182016143034.jpg|https://eldercarematters.com/wp-content/uploads/job-manager-uploads/company_avatar/2017/10/logo.png,"Nursing Home Health Care in Iowa|Nursing Home Health Care in Iowa",|,|,|,https://eldercarematters.com/wp-content/uploads/job-manager-uploads/featured_image/2017/10/sign_2016182016143034.jpg,
https://eldercarematters.com/wp-content/uploads/job-manager-uploads/featured_image/2017/10/20160426221117.jpg|https://eldercarematters.com/wp-content/uploads/job-manager-uploads/company_avatar/2017/10/Rockwell-Nurshing-Home.jpg,"Community Nursing &amp; Rehabilitation Services Center in Iowa|Community Nursing &amp; Rehabilitation Services Center in Iowa",|,|,|,https://eldercarematters.com/wp-content/uploads/job-manager-uploads/featured_image/2017/10/20160426221117.jpg,
,,,,,,
,,,,,,
https://eldercarematters.com/wp-content/uploads/job-manager-uploads/company_avatar/2017/11/nMBcCMCE_400x400.png,"VA Legal Team, LLC",,,,,
https://eldercarematters.com/wp-content/uploads/job-manager-uploads/featured_image/2018/01/15349656_1433381383353609_15894173102592475_n.jpg|https://eldercarematters.com/wp-content/uploads/job-manager-uploads/company_avatar/2018/01/543330_421809681177456_1388022925_n.jpg,"The Grossman Law Firm, APC|The Grossman Law Firm, APC",|,|,|,https://eldercarematters.com/wp-content/uploads/job-manager-uploads/featured_image/2018/01/15349656_1433381383353609_15894173102592475_n.jpg,
https://eldercarematters.com/wp-content/uploads/job-manager-uploads/featured_image/2018/01/Families-Choice-Home-Care_Logo.jpg|https://eldercarematters.com/wp-content/uploads/job-manager-uploads/company_avatar/2018/01/Families-Choice-Home-Care_Logo.jpg,"Families Choice Home Care|Families Choice Home Care",|,|,|,https://eldercarematters.com/wp-content/uploads/job-manager-uploads/featured_image/2018/01/Families-Choice-Home-Care_Logo.jpg,
https://eldercarematters.com/wp-content/uploads/job-manager-uploads/company_avatar/2018/01/Kim-Photo.jpg,"Hegwood Law Group, PLLC",,,"Elder Care Directory",,
https://eldercarematters.com/wp-content/uploads/job-manager-uploads/featured_image/2018/01/AdobeStock_61670558-Aged-Couple-300x200.jpg|https://eldercarematters.com/wp-content/uploads/job-manager-uploads/company_avatar/2018/01/osr-800x234.png,"Ocean Soul Renewal|Ocean Soul Renewal",|,|,|,https://eldercarematters.com/wp-content/uploads/job-manager-uploads/featured_image/2018/01/AdobeStock_61670558-Aged-Couple-300x200.jpg,
https://eldercarematters.com/wp-content/uploads/job-manager-uploads/featured_image/2018/01/full-companioncare.jpg|https://eldercarematters.com/wp-content/uploads/job-manager-uploads/company_avatar/2018/01/Logo.jpg,"Home Helpers of Northern Va.|Home Helpers of Northern Va.",|,|,|,https://eldercarematters.com/wp-content/uploads/job-manager-uploads/featured_image/2018/01/full-companioncare.jpg,
,,,,,,
https://eldercarematters.com/wp-content/uploads/job-manager-uploads/featured_image/2018/01/homescare-facebook-logo.jpg|https://eldercarematters.com/wp-content/uploads/job-manager-uploads/company_avatar/2018/01/JohnMiller1.gif,"Home Care Partners, LLC|Home Care Partners, LLC",|,|,|,https://eldercarematters.com/wp-content/uploads/job-manager-uploads/featured_image/2018/01/homescare-facebook-logo.jpg,
,,,,,,
https://eldercarematters.com/wp-content/uploads/job-manager-uploads/featured_image/2018/01/sunny-rose-glen-facility-picture..jpg|https://eldercarematters.com/wp-content/uploads/job-manager-uploads/company_avatar/2018/01/SunnyRoseGlen_Logo_Colored_300dpi.jpg,"Sunny Rose Glen Assisted Living and Memory Care|Sunny Rose Glen Assisted Living and Memory Care",|,|,|,https://eldercarematters.com/wp-content/uploads/job-manager-uploads/featured_image/2018/01/sunny-rose-glen-facility-picture..jpg,
https://eldercarematters.com/wp-content/uploads/job-manager-uploads/company_avatar/2018/01/amy-griboff.png,"McMillan Metro, PC",,,,,
https://eldercarematters.com/wp-content/uploads/job-manager-uploads/company_avatar/2018/01/HH-Logo-pink.jpg,"Heartwood Health",,,,,
,,,,,,
https://eldercarematters.com/wp-content/uploads/job-manager-uploads/featured_image/2018/01/2B2BF889-048D-4FBC-825D-D3003547BEF4-e1517520864418.jpeg|https://eldercarematters.com/wp-content/uploads/job-manager-uploads/company_avatar/2018/01/00C9A1A6-D6DE-4096-A634-C944581747F5.png|https://eldercarematters.com/wp-content/uploads/job-manager-uploads/featured_image/2018/01/AB7EEAC7-C3EB-4D68-BB54-45BBF2B11F14.jpeg,"Alliance Eldercare Senior Placement Service|Alliance Eldercare Senior Placement Service|Alliance Eldercare Senior Placement Service",||,||,||,https://eldercarematters.com/wp-content/uploads/job-manager-uploads/featured_image/2018/01/2B2BF889-048D-4FBC-825D-D3003547BEF4-e1517520864418.jpeg,
https://eldercarematters.com/wp-content/uploads/job-manager-uploads/featured_image/2018/01/Contact-Us-with-website-and-phone.png|https://eldercarematters.com/wp-content/uploads/job-manager-uploads/company_avatar/2018/01/2010-CHC-logo-BW.jpg,"Colorado Health Care|Colorado Health Care",|,|,|,https://eldercarematters.com/wp-content/uploads/job-manager-uploads/featured_image/2018/01/Contact-Us-with-website-and-phone.png,
,,,,,,
https://eldercarematters.com/wp-content/uploads/job-manager-uploads/featured_image/2018/01/03-1020-0048.jpg|https://eldercarematters.com/wp-content/uploads/job-manager-uploads/company_avatar/2018/01/Falmouth-Ad-03-1020-0048.jpg|https://eldercarematters.com/wp-content/uploads/job-manager-uploads/company_avatar/2018/01/3-17-09-e1517520401727.jpg,"Law Offices of Barry R. Crimmins, P.C.|Law Offices of Barry R. Crimmins, P.C.|Law Offices of Barry R. Crimmins, P.C.",||,||,||,https://eldercarematters.com/wp-content/uploads/job-manager-uploads/featured_image/2018/01/03-1020-0048.jpg,
,,,,,,
https://eldercarematters.com/wp-content/uploads/job-manager-uploads/featured_image/2018/01/LPFS-LOGO.jpg|https://eldercarematters.com/wp-content/uploads/2018/01/JL_2006-3-150x150b.jpg,"Lawson Professional Fiduciary Services|JL_2006-3-150x150b",|,|,|,https://eldercarematters.com/wp-content/uploads/job-manager-uploads/featured_image/2018/01/LPFS-LOGO.jpg,
https://eldercarematters.com/wp-content/uploads/job-manager-uploads/featured_image/2018/01/caregiver-family-in-kitchen_2014.jpg|https://eldercarematters.com/wp-content/uploads/job-manager-uploads/company_avatar/2018/01/Color-Logo-small.jpg,"Home Helpers of Jacksonville|Home Helpers of Jacksonville",|,|,|,https://eldercarematters.com/wp-content/uploads/job-manager-uploads/featured_image/2018/01/caregiver-family-in-kitchen_2014.jpg,
https://eldercarematters.com/wp-content/uploads/job-manager-uploads/company_avatar/2018/01/1.png,"ElderLife Coaching",,,,,
https://eldercarematters.com/wp-content/uploads/job-manager-uploads/featured_image/2018/01/dock-and-sunset.jpeg|https://eldercarematters.com/wp-content/uploads/job-manager-uploads/company_avatar/2018/01/17426212_1230536063709266_168613834647521604_n.jpg,"Connie Page Properties @ Solutions Real Estate|Connie Page Properties @ Solutions Real Estate",|,|,|,https://eldercarematters.com/wp-content/uploads/job-manager-uploads/featured_image/2018/01/dock-and-sunset.jpeg,
https://eldercarematters.com/wp-content/uploads/job-manager-uploads/company_avatar/2018/01/Shober-Rock-Small-Bmp.jpg,"Shober &amp; Rock, P.C.",,,,,
https://eldercarematters.com/wp-content/uploads/job-manager-uploads/featured_image/2018/01/Main-Logo.jpg,"Paxem, Inc.",,,,https://eldercarematters.com/wp-content/uploads/job-manager-uploads/featured_image/2018/01/Main-Logo.jpg,
,,,,,,
,,,,,,
https://eldercarematters.com/wp-content/uploads/job-manager-uploads/featured_image/2018/01/FMPR-2.jpg,"Falkenstein, Meggers, Paul &amp; Robinson, P.C.",,,,https://eldercarematters.com/wp-content/uploads/job-manager-uploads/featured_image/2018/01/FMPR-2.jpg,
,,,,,,
https://eldercarematters.com/wp-content/uploads/job-manager-uploads/company_avatar/2018/01/Home-Free-logo.jpg,"HomeFree Home Modification",,,,,
https://eldercarematters.com/wp-content/uploads/2018/01/Pam-Carson-Headshot-2017-resized.jpg|https://eldercarematters.com/wp-content/uploads/job-manager-uploads/company_avatar/2018/01/CB_BlackstoneRealty_3D_FullColor_Stacked_border.png,"Pam-Carson-Headshot-2017-resized|Pam and Carson Real Estate &#8211; Seniors Real Estate Specialists",|,|,|,https://eldercarematters.com/wp-content/uploads/2018/01/Pam-Carson-Headshot-2017-resized.jpg,
https://eldercarematters.com/wp-content/uploads/job-manager-uploads/featured_image/2018/01/Theseniorsmartshow-facebook-header.jpg|https://eldercarematters.com/wp-content/uploads/job-manager-uploads/company_avatar/2018/01/MSBforSeniorSmartlogo.jpg,"Senior Smart Show|Senior Smart Show",|,|,|,https://eldercarematters.com/wp-content/uploads/job-manager-uploads/featured_image/2018/01/Theseniorsmartshow-facebook-header.jpg,
https://eldercarematters.com/wp-content/uploads/job-manager-uploads/featured_image/2018/01/Group_of_Women_Airforce_Service_Pilots_and_B-17_Flying_Fortress-1024x802.jpg|https://eldercarematters.com/wp-content/uploads/job-manager-uploads/company_avatar/2018/01/fullsizeoutput_d04a.jpeg,"Colorado Neurogeriatrics, Andrew Schechterman PhD LLC PSC|Colorado Neurogeriatrics, Andrew Schechterman PhD LLC PSC",|,|,|,https://eldercarematters.com/wp-content/uploads/job-manager-uploads/featured_image/2018/01/Group_of_Women_Airforce_Service_Pilots_and_B-17_Flying_Fortress-1024x802.jpg,
https://eldercarematters.com/wp-content/uploads/job-manager-uploads/featured_image/2018/01/sivia-law-color.jpg|https://eldercarematters.com/wp-content/uploads/job-manager-uploads/company_avatar/2018/01/Linkedin-Photo.jpg,"Sivia Law|Sivia Law",|,|,|,https://eldercarematters.com/wp-content/uploads/job-manager-uploads/featured_image/2018/01/sivia-law-color.jpg,
,,,,,,
,,,,,,
https://eldercarematters.com/wp-content/uploads/job-manager-uploads/company_avatar/2018/01/thumbnail_HomecareCA_Logo_Final_4.jpg-1.png,"Homecare California",,,,,
https://eldercarematters.com/wp-content/uploads/job-manager-uploads/featured_image/2018/01/Side-by-Side.png|https://eldercarematters.com/wp-content/uploads/job-manager-uploads/company_avatar/2018/01/Headshot-Legal-300p.jpg,"Israel &amp; Gerity, PLLC|Israel &amp; Gerity, PLLC",|,|,|,https://eldercarematters.com/wp-content/uploads/job-manager-uploads/featured_image/2018/01/Side-by-Side.png,
,,,,,,
,,,,,,
https://eldercarematters.com/wp-content/uploads/2018/01/lcarr.jpg,lcarr,,,"Elder Care Directory",,
,,,,,,
,,,,,,
,,,,,,
https://eldercarematters.com/wp-content/uploads/job-manager-uploads/featured_image/2018/01/LifeSpanLogo.png|https://eldercarematters.com/wp-content/uploads/job-manager-uploads/company_avatar/2018/01/Mike15.jpg,"LifeSpan Care Management LLC|LifeSpan Care Management LLC",|,|,|,https://eldercarematters.com/wp-content/uploads/job-manager-uploads/featured_image/2018/01/LifeSpanLogo.png,
,,,,,,
https://eldercarematters.com/wp-content/uploads/job-manager-uploads/company_avatar/2018/01/2017.03.17-Logo-adding-Denyse.jpg,"Karen S. Keaton, Esq., Gulf Beaches Law, P.A.",,,,,
https://eldercarematters.com/wp-content/uploads/job-manager-uploads/company_avatar/2018/01/IBO-Logo-cropped.jpg,"Ivey, Barnum &amp; O&#8217;Mara, LLC",,,,,
https://eldercarematters.com/wp-content/uploads/job-manager-uploads/company_avatar/2018/01/JerretLuitjens_logos_final-v0_V1-HI-RES-640x366-1.jpg,"Jarrett &amp; Luitjens",,,,,
https://eldercarematters.com/wp-content/uploads/job-manager-uploads/featured_image/2018/01/Baystate_Logo_Linear_RGB_Tag-Large.gif|https://eldercarematters.com/wp-content/uploads/job-manager-uploads/company_avatar/2018/01/My-New-Mug-Shot.jpg,"Baystate Financial|Baystate Financial",|,|,|,https://eldercarematters.com/wp-content/uploads/job-manager-uploads/featured_image/2018/01/Baystate_Logo_Linear_RGB_Tag-Large.gif,
,,,,,,
https://eldercarematters.com/wp-content/uploads/job-manager-uploads/company_avatar/2018/01/RAH-Logo.png|https://eldercarematters.com/wp-content/uploads/job-manager-uploads/company_avatar/2018/01/28296.jpg,"Right at Home Santa Clara County|Right at Home Santa Clara County",|,|,|,,
https://eldercarematters.com/wp-content/uploads/job-manager-uploads/company_avatar/2018/01/Discreet-Solutions-Logo-2.png,"Discreet Solutions",,,,,
https://eldercarematters.com/wp-content/uploads/job-manager-uploads/featured_image/2018/01/new20ver217.jpg|https://eldercarematters.com/wp-content/uploads/job-manager-uploads/company_avatar/2018/01/McTeam_logo_Lee2016_sml.png,"McTeam Properties/Mature Moves Division|McTeam Properties/Mature Moves Division",|,|,|,https://eldercarematters.com/wp-content/uploads/job-manager-uploads/featured_image/2018/01/new20ver217.jpg,
https://eldercarematters.com/wp-content/uploads/job-manager-uploads/featured_image/2018/01/Elder-Law-2.png|https://eldercarematters.com/wp-content/uploads/job-manager-uploads/featured_image/2018/01/RobertRosenfeld-jpg.jpg,"Robert C Rosenfeld|Robert C Rosenfeld",|,|,|,https://eldercarematters.com/wp-content/uploads/job-manager-uploads/featured_image/2018/01/Elder-Law-2.png,
https://eldercarematters.com/wp-content/uploads/job-manager-uploads/company_avatar/2018/01/GBSCRLogo.jpg|https://eldercarematters.com/wp-content/uploads/job-manager-uploads/company_avatar/2018/01/me-1.jpg,"Gwyneth Blackwell Senior Care Resources, Inc.|Gwyneth Blackwell Senior Care Resources, Inc.",|,|,|,,
,,,,,,
https://eldercarematters.com/wp-content/uploads/job-manager-uploads/company_avatar/2018/01/bdgroup_logo.jpg|https://eldercarematters.com/wp-content/uploads/job-manager-uploads/company_avatar/2018/01/Bryan-close-up.jpg,"Bryan Devore Realty Group|Bryan Devore Realty Group",|,|,|,,
https://eldercarematters.com/wp-content/uploads/job-manager-uploads/featured_image/2018/01/HCP-logo-with-license-646-x-220.jpeg|https://eldercarematters.com/wp-content/uploads/job-manager-uploads/company_avatar/2018/01/HCP-logo-with-license-300-x-300.jpeg,"HomeCare Professionals|HomeCare Professionals",|,|,|,https://eldercarematters.com/wp-content/uploads/job-manager-uploads/featured_image/2018/01/HCP-logo-with-license-646-x-220.jpeg,
https://eldercarematters.com/wp-content/uploads/job-manager-uploads/company_avatar/2018/01/phyllis-from-meetup-1.jpg,"Personal Financial Care LLC",,,,,
,,,,,,
https://eldercarematters.com/wp-content/uploads/job-manager-uploads/company_avatar/2018/01/Photo-Head-Shot-3.-Sam-1.jpg,"Thomas Fiduciary Services, Trustee, Conservatorships, Guardinaships &amp; Trust Estate Adminstration.",,,,,
https://eldercarematters.com/wp-content/uploads/job-manager-uploads/company_avatar/2018/01/EF0ECE52-312E-4B71-806A-F3DA2746D62D-e1517513811627.jpeg,"Elinor Robin, PhD, Family Mediator",,,,,
https://eldercarematters.com/wp-content/uploads/job-manager-uploads/company_avatar/2018/01/B-Card-1-vistaprint.jpg,"Crossroads Elder Advocacy Inc.",,,,,
https://eldercarematters.com/wp-content/uploads/job-manager-uploads/company_avatar/2018/01/Logo-1.jpg,"Saundra M. Gumerove &amp; Associates",,,,,
,,,,,,
,,,,,,
https://eldercarematters.com/wp-content/uploads/job-manager-uploads/company_avatar/2018/01/bridgecare-large.png,"Bridge Care Consulting Inc.",,,,,
https://eldercarematters.com/wp-content/uploads/job-manager-uploads/featured_image/2018/01/Cropped-front.jpg|https://eldercarematters.com/wp-content/uploads/job-manager-uploads/company_avatar/2018/01/Reutlinger20Community20Logo20w_Tag.jpg,"The Reutlinger Community|The Reutlinger Community",|,|,|,https://eldercarematters.com/wp-content/uploads/job-manager-uploads/featured_image/2018/01/Cropped-front.jpg,
https://eldercarematters.com/wp-content/uploads/job-manager-uploads/company_avatar/2018/01/TheSimpleLifeLogo-1.jpg,"The Simple Life",,,,,
https://eldercarematters.com/wp-content/uploads/job-manager-uploads/featured_image/2018/01/Joanne-Photo.jpg,"Attorney Joanne Leifheit, LLC",,,,https://eldercarematters.com/wp-content/uploads/job-manager-uploads/featured_image/2018/01/Joanne-Photo.jpg,
https://eldercarematters.com/wp-content/uploads/job-manager-uploads/featured_image/2018/01/BEELlogo.jpg|https://eldercarematters.com/wp-content/uploads/job-manager-uploads/company_avatar/2018/01/Bergerprofilepic.jpg,"James P. Berger|James P. Berger",|,|,|,https://eldercarematters.com/wp-content/uploads/job-manager-uploads/featured_image/2018/01/BEELlogo.jpg,
https://eldercarematters.com/wp-content/uploads/job-manager-uploads/featured_image/2018/01/Is-this-you.jpg|https://eldercarematters.com/wp-content/uploads/job-manager-uploads/featured_image/2018/01/LOGO.jpg,"Personal Med Management Inc|Personal Med Management Inc",|,|,|,https://eldercarematters.com/wp-content/uploads/job-manager-uploads/featured_image/2018/01/Is-this-you.jpg,
https://eldercarematters.com/wp-content/uploads/job-manager-uploads/featured_image/2018/01/20171201_144627.w.jpg|https://eldercarematters.com/wp-content/uploads/job-manager-uploads/company_avatar/2018/01/MAlogo.png,"Montgomery &amp; Associates, Inc. (DBA: ALTCS Planning.net)|Montgomery &amp; Associates, Inc. (DBA: ALTCS Planning.net)",|,|,|,https://eldercarematters.com/wp-content/uploads/job-manager-uploads/featured_image/2018/01/20171201_144627.w.jpg,
https://eldercarematters.com/wp-content/uploads/job-manager-uploads/featured_image/2018/01/seniors.jpg|https://eldercarematters.com/wp-content/uploads/job-manager-uploads/company_avatar/2018/01/profile-pic-e1516572011435.jpg,"In Good Hands Medicaid Consulting LLC|In Good Hands Medicaid Consulting LLC",|,|,"Elder Care Directory|",https://eldercarematters.com/wp-content/uploads/job-manager-uploads/featured_image/2018/01/seniors.jpg,
https://eldercarematters.com/wp-content/uploads/job-manager-uploads/company_avatar/2018/01/Logo-2.png|https://eldercarematters.com/wp-content/uploads/job-manager-uploads/company_avatar/2018/01/Logo-3.jpg,"The Ultimate Caregiving Expert|The Ultimate Caregiving Expert",|,|,|,,
,,,,,,
https://eldercarematters.com/wp-content/uploads/job-manager-uploads/company_avatar/2018/01/FB-with-new-logo.jpg,"Preferred Living Solutions",,,,,
https://eldercarematters.com/wp-content/uploads/job-manager-uploads/featured_image/2018/01/logo.png,"Right at Home South Shore Long Island",,,,https://eldercarematters.com/wp-content/uploads/job-manager-uploads/featured_image/2018/01/logo.png,
https://eldercarematters.com/wp-content/uploads/job-manager-uploads/company_avatar/2018/01/Ruby-Miller-Final-1.2014.jpg,"Ruby Miller, Agent, State Farm Insurance",,,,,
https://eldercarematters.com/wp-content/uploads/job-manager-uploads/featured_image/2018/01/20150805_200240-1.jpg|https://eldercarematters.com/wp-content/uploads/job-manager-uploads/company_avatar/2018/01/PARADISE-HOME-HEALTH-CARE-LOGOresized2.jpg,"Paradise Home Health Care|Paradise Home Health Care",|,|,|,https://eldercarematters.com/wp-content/uploads/job-manager-uploads/featured_image/2018/01/20150805_200240-1.jpg,
https://eldercarematters.com/wp-content/uploads/job-manager-uploads/company_avatar/2018/01/Pauls-Pic.jpg,"PHS Advisors",,,,,
https://eldercarematters.com/wp-content/uploads/job-manager-uploads/featured_image/2018/01/MEL-Picture.jpg,"Mary Ellen Leslie &amp; Associates",,,,https://eldercarematters.com/wp-content/uploads/job-manager-uploads/featured_image/2018/01/MEL-Picture.jpg,
https://eldercarematters.com/wp-content/uploads/job-manager-uploads/featured_image/2018/01/Logo-copy-2.png|https://eldercarematters.com/wp-content/uploads/job-manager-uploads/company_avatar/2018/01/OutDoor1-copy.jpg,"Lavine: LTC Benefits|Lavine: LTC Benefits",|,|,|,https://eldercarematters.com/wp-content/uploads/job-manager-uploads/featured_image/2018/01/Logo-copy-2.png,
https://eldercarematters.com/wp-content/uploads/job-manager-uploads/company_avatar/2018/01/afs_logo_360.jpg,"Alternatives Financial Services, LLC",,,,,
https://eldercarematters.com/wp-content/uploads/job-manager-uploads/company_avatar/2018/01/Joe-B.png,"Interim HealthCare",,,,,
https://eldercarematters.com/wp-content/uploads/job-manager-uploads/company_avatar/2018/01/PHC-logo.jpg,"Physician Housecalls",,,,,
https://eldercarematters.com/wp-content/uploads/job-manager-uploads/featured_image/2018/01/ThesenvitzLogo_vsFINAL_WEB.gif|https://eldercarematters.com/wp-content/uploads/job-manager-uploads/company_avatar/2018/01/thesenvitz_37.jpg,"Thesenvitz &amp; Mickelson, LLP|Thesenvitz &amp; Mickelson, LLP",|,|,|,https://eldercarematters.com/wp-content/uploads/job-manager-uploads/featured_image/2018/01/ThesenvitzLogo_vsFINAL_WEB.gif,
https://eldercarematters.com/wp-content/uploads/job-manager-uploads/featured_image/2018/01/20170717_113113.jpg|https://eldercarematters.com/wp-content/uploads/job-manager-uploads/company_avatar/2018/01/Invacare2.jpg,"The Shield|The Shield",|,|,|,https://eldercarematters.com/wp-content/uploads/job-manager-uploads/featured_image/2018/01/20170717_113113.jpg,
,,,,,,
https://eldercarematters.com/wp-content/uploads/job-manager-uploads/featured_image/2018/01/no-background_Nolan-Elder-Law-and-Estate-Planning-Logo.gif|https://eldercarematters.com/wp-content/uploads/job-manager-uploads/company_avatar/2018/01/new-head-shotB.png,"Nolan Elder Law and Estate Planning, LLC|Nolan Elder Law and Estate Planning, LLC",|,|,|,https://eldercarematters.com/wp-content/uploads/job-manager-uploads/featured_image/2018/01/no-background_Nolan-Elder-Law-and-Estate-Planning-Logo.gif,
https://eldercarematters.com/wp-content/uploads/job-manager-uploads/featured_image/2018/01/Merrianne-Logo-SMALL-CMYK.jpg,"The Dean Law Group. APLC",,,,https://eldercarematters.com/wp-content/uploads/job-manager-uploads/featured_image/2018/01/Merrianne-Logo-SMALL-CMYK.jpg,
,,,,,,
https://eldercarematters.com/wp-content/uploads/job-manager-uploads/featured_image/2018/01/Columbus-Headshot-Photography-Annette-Ticoras-4.jpg|https://eldercarematters.com/wp-content/uploads/job-manager-uploads/company_avatar/2018/01/smaller-headshot-for-email.jpg|https://eldercarematters.com/wp-content/uploads/job-manager-uploads/featured_image/2018/01/GPS-Logo-with-extra-circles-FOR-WEB.png|https://eldercarematters.com/wp-content/uploads/job-manager-uploads/company_avatar/2018/01/GPS-Compact-Logo-01.png,"Guided Patient Services, Inc|Guided Patient Services, Inc|Guided Patient Services, Inc|Guided Patient Services, Inc",|||,|||,|||,https://eldercarematters.com/wp-content/uploads/job-manager-uploads/featured_image/2018/01/Columbus-Headshot-Photography-Annette-Ticoras-4.jpg,
https://eldercarematters.com/wp-content/uploads/job-manager-uploads/featured_image/2018/01/Photo_A_Elaine-and-PPM-2.jpg|https://eldercarematters.com/wp-content/uploads/job-manager-uploads/company_avatar/2018/01/MSCSlogo_PNG_Jan_2016-2.png,"Maxwell&#8217;s Senior Care Services LLC|Maxwell&#8217;s Senior Care Services LLC",|,|,|,https://eldercarematters.com/wp-content/uploads/job-manager-uploads/featured_image/2018/01/Photo_A_Elaine-and-PPM-2.jpg,
https://eldercarematters.com/wp-content/uploads/job-manager-uploads/company_avatar/2018/01/square_attorneys.jpg,"Levine, Furman, Rubin &amp; Alguram, LLC",,,,,
https://eldercarematters.com/wp-content/uploads/job-manager-uploads/featured_image/2018/01/inclusive_collage_rect.jpg|https://eldercarematters.com/wp-content/uploads/job-manager-uploads/company_avatar/2018/01/GrandFamilyPlanningLogoR.jpg,"Grand Family Planning LLC|Grand Family Planning LLC",|,|,|,https://eldercarematters.com/wp-content/uploads/job-manager-uploads/featured_image/2018/01/inclusive_collage_rect.jpg,
https://eldercarematters.com/wp-content/uploads/job-manager-uploads/company_avatar/2018/01/ElderlinkGraphicsLogolinear.png|https://eldercarematters.com/wp-content/uploads/job-manager-uploads/company_avatar/2018/01/logomarkalone.jpg,"Elderlink Home Care, Inc.|Elderlink Home Care, Inc.",|,|,|,,
,,,,,,
https://eldercarematters.com/wp-content/uploads/job-manager-uploads/featured_image/2018/01/16E93994-747B-4B15-9C39-2A2C29C8E678.jpeg,"Organized Aging",,,,https://eldercarematters.com/wp-content/uploads/job-manager-uploads/featured_image/2018/01/16E93994-747B-4B15-9C39-2A2C29C8E678.jpeg,
,,,,,,
https://eldercarematters.com/wp-content/uploads/job-manager-uploads/featured_image/2018/01/LTC-Blood-out-of-a-rock.jpg|https://eldercarematters.com/wp-content/uploads/job-manager-uploads/company_avatar/2018/01/cycle-of-life-with-CC-bug.png,Americanlongtermcare.org|Americanlongtermcare.org,|,|,|,https://eldercarematters.com/wp-content/uploads/job-manager-uploads/featured_image/2018/01/LTC-Blood-out-of-a-rock.jpg,
https://eldercarematters.com/wp-content/uploads/job-manager-uploads/company_avatar/2018/01/image006.jpg,"Walter A Twachtman, Jr.",,,,,
https://eldercarematters.com/wp-content/uploads/job-manager-uploads/company_avatar/2018/01/HOLLY.jpg,"Law Office of Christopher J. Holly",,,,,
,,,,,,
https://eldercarematters.com/wp-content/uploads/job-manager-uploads/company_avatar/2018/01/pic-for-business-1.jpg,"The Organizer",,,,,
https://eldercarematters.com/wp-content/uploads/job-manager-uploads/featured_image/2018/01/WeLovePMPMatte2Crop.jpg|https://eldercarematters.com/wp-content/uploads/job-manager-uploads/company_avatar/2018/01/Logo-Picture.jpg,"Pack My Parents LLC|Pack My Parents LLC",|,|,|,https://eldercarematters.com/wp-content/uploads/job-manager-uploads/featured_image/2018/01/WeLovePMPMatte2Crop.jpg,
https://eldercarematters.com/wp-content/uploads/job-manager-uploads/company_avatar/2018/01/pic-for-business-1.jpg,"The Organizer",,,,,
https://eldercarematters.com/wp-content/uploads/job-manager-uploads/company_avatar/2018/01/SENIORS-CHOICE-logo.jpg,"Seniors&#8217; Choice Home Improvement Specialists",,,,,
https://eldercarematters.com/wp-content/uploads/job-manager-uploads/featured_image/2018/01/00U0U_dK1vZKSNgaC_600x450.jpg|https://eldercarematters.com/wp-content/uploads/job-manager-uploads/company_avatar/2018/01/11866333_1608405022754813_2582111267708913668_n.png,"Helping Hands Senior Foundation|Helping Hands Senior Foundation",|,|,|,https://eldercarematters.com/wp-content/uploads/job-manager-uploads/featured_image/2018/01/00U0U_dK1vZKSNgaC_600x450.jpg,
https://eldercarematters.com/wp-content/uploads/job-manager-uploads/company_avatar/2018/01/Elder-Counsel-Photo-12-7-17.jpg,"Sebastiano Law Ltd.",,,,,
,,,,,,
https://eldercarematters.com/wp-content/uploads/job-manager-uploads/featured_image/2018/03/Ritchie-Financial-for-website.jpg,"Ritchie Financial/The LTC STORE",,,,https://eldercarematters.com/wp-content/uploads/job-manager-uploads/featured_image/2018/03/Ritchie-Financial-for-website.jpg,
https://eldercarematters.com/wp-content/uploads/job-manager-uploads/featured_image/2018/01/BLF-BUILDING.jpg|https://eldercarematters.com/wp-content/uploads/job-manager-uploads/company_avatar/2018/01/JAB-FULL-PHOTO-CROPPED.jpg,"The Bradley Law Firm, PLLC|The Bradley Law Firm, PLLC",|,|,|,https://eldercarematters.com/wp-content/uploads/job-manager-uploads/featured_image/2018/01/BLF-BUILDING.jpg,
https://eldercarematters.com/wp-content/uploads/job-manager-uploads/featured_image/2018/01/group2.jpg|https://eldercarematters.com/wp-content/uploads/job-manager-uploads/company_avatar/2018/01/logo2-small.png|https://eldercarematters.com/wp-content/uploads/job-manager-uploads/company_avatar/2019/04/CareFor_Logo_CenteredAligned_NavyBG_RGB.png,"Nurses Case Management|Nurses Case Management|CareFor",||,||,||,https://eldercarematters.com/wp-content/uploads/job-manager-uploads/featured_image/2018/01/group2.jpg,
https://eldercarematters.com/wp-content/uploads/job-manager-uploads/company_avatar/2018/01/Lady-Justice-1.jpg|https://eldercarematters.com/wp-content/uploads/job-manager-uploads/featured_image/2018/01/IMG_0833-1.jpg,"Estrada Law, P.C.|Estrada Law, P.C.",|,|,|,,
https://eldercarematters.com/wp-content/uploads/job-manager-uploads/featured_image/2018/01/1.png|https://eldercarematters.com/wp-content/uploads/job-manager-uploads/company_avatar/2018/01/CHC-Logo-Final.png|https://eldercarematters.com/wp-content/uploads/job-manager-uploads/company_avatar/2018/01/House-logo.png,"Changes Home Care and Home Health Care|Changes Home Care and Home Health Care|Changes Home Care and Home Health Care",||,||,||,https://eldercarematters.com/wp-content/uploads/job-manager-uploads/featured_image/2018/01/1.png,
https://eldercarematters.com/wp-content/uploads/2018/05/Paule-Camazine-blumenthal-google-image.jpg|https://eldercarematters.com/wp-content/uploads/job-manager-uploads/company_avatar/2018/01/DKS-BIO-PIC-02658289xA1AA6.jpg,"Paule-Camazine-blumenthal-google-image|Paule, Camazine &amp; Blumenthal P.C.",|,|,"|Elder Care Directory",https://eldercarematters.com/wp-content/uploads/2018/05/Paule-Camazine-blumenthal-google-image.jpg,
https://eldercarematters.com/wp-content/uploads/job-manager-uploads/company_avatar/2018/01/28296.jpg,"Right at Home Santa Clara County",,,,,
https://eldercarematters.com/wp-content/uploads/job-manager-uploads/company_avatar/2018/01/Donna-Stefans_medium-1.jpg,"Stefans Law Group PC",,,,,
https://eldercarematters.com/wp-content/uploads/job-manager-uploads/featured_image/2018/01/butterfly-facebook.jpg|https://eldercarematters.com/wp-content/uploads/job-manager-uploads/company_avatar/2018/01/dr-joy.jpg|https://eldercarematters.com/wp-content/uploads/job-manager-uploads/featured_image/2018/01/googlebusinessphoto.jpg,"Joyful Dental Care|Joyful Dental Care|Joyful Dental Care",||,||,||,https://eldercarematters.com/wp-content/uploads/job-manager-uploads/featured_image/2018/01/butterfly-facebook.jpg,
https://eldercarematters.com/wp-content/uploads/job-manager-uploads/featured_image/2018/01/carenav-logo-extended-1.png|https://eldercarematters.com/wp-content/uploads/job-manager-uploads/company_avatar/2018/01/cni-logo-flower-2.jpg,"Care Navigators Inc.|Care Navigators Inc.",|,|,|,https://eldercarematters.com/wp-content/uploads/job-manager-uploads/featured_image/2018/01/carenav-logo-extended-1.png,
https://eldercarematters.com/wp-content/uploads/job-manager-uploads/featured_image/2018/01/home-page-banner.jpg|https://eldercarematters.com/wp-content/uploads/job-manager-uploads/company_avatar/2018/01/JCS-Smiling-headshot-256-x-246.jpg,"Law Office of James C. Siebert &amp; Associates, P.C.|Law Office of James C. Siebert &amp; Associates, P.C.",|,|,|,https://eldercarematters.com/wp-content/uploads/job-manager-uploads/featured_image/2018/01/home-page-banner.jpg,
https://eldercarematters.com/wp-content/uploads/job-manager-uploads/company_avatar/2018/01/HCA_logo_Google-.jpg,"Home Care Assistance of Palm Beach County",,,,,
https://eldercarematters.com/wp-content/uploads/job-manager-uploads/featured_image/2018/02/PEKD-BusinessCard.jpg|https://eldercarematters.com/wp-content/uploads/job-manager-uploads/company_avatar/2018/02/PEKD-BusinessCard.jpg|https://eldercarematters.com/wp-content/uploads/job-manager-uploads/company_avatar/2018/02/17457712_10154546923262547_723913394283145773_n.jpg,"Patricia E. Kefalas Dudek &amp; Associates|Patricia E. Kefalas Dudek &amp; Associates|Patricia E. Kefalas Dudek &amp; Associates",||,||,||,https://eldercarematters.com/wp-content/uploads/job-manager-uploads/featured_image/2018/02/PEKD-BusinessCard.jpg,
https://eldercarematters.com/wp-content/uploads/2018/02/WEB-SITE-VETERANS-FLAG-IMAGE-08-30-2011-resized.jpg|https://eldercarematters.com/wp-content/uploads/job-manager-uploads/company_avatar/2018/02/TIM-SPECHT-MARKETING-PICTURE-02-02-2018-e1517855700262.jpg,"WEB-SITE-VETERANS-FLAG-IMAGE-08-30-2011-resized|Silver American Insurance",|,|,|,https://eldercarematters.com/wp-content/uploads/2018/02/WEB-SITE-VETERANS-FLAG-IMAGE-08-30-2011-resized.jpg,
https://eldercarematters.com/wp-content/uploads/job-manager-uploads/featured_image/2018/02/292509_2911069028157_347415010_n.jpg|https://eldercarematters.com/wp-content/uploads/job-manager-uploads/company_avatar/2018/02/12642479_10204965647453261_6383951132557232715_n.jpg,"Donna J. Jackson &amp; Associates, PLLC|Donna J. Jackson &amp; Associates, PLLC",|,|,|,https://eldercarematters.com/wp-content/uploads/job-manager-uploads/featured_image/2018/02/292509_2911069028157_347415010_n.jpg,
https://eldercarematters.com/wp-content/uploads/job-manager-uploads/featured_image/2018/02/LLH-Logo.jpg|https://eldercarematters.com/wp-content/uploads/job-manager-uploads/company_avatar/2018/02/G.-Larson.png,"Larson Latham Huettl LLP|Larson Latham Huettl LLP",|,|,|,https://eldercarematters.com/wp-content/uploads/job-manager-uploads/featured_image/2018/02/LLH-Logo.jpg,
https://eldercarematters.com/wp-content/uploads/job-manager-uploads/featured_image/2018/02/2016.05-New-Logo-with-KSK.jpg,"Karen S. Keaton, Esq., Gulf Beaches Law, P.A.",,,,https://eldercarematters.com/wp-content/uploads/job-manager-uploads/featured_image/2018/02/2016.05-New-Logo-with-KSK.jpg,
https://eldercarematters.com/wp-content/uploads/job-manager-uploads/featured_image/2018/02/Marquardt-4-circles.jpg|https://eldercarematters.com/wp-content/uploads/job-manager-uploads/company_avatar/2018/02/FullSizeRender.jpg,"Marquardt Law Firm, P.C.|Marquardt Law Firm, P.C.",|,|,|,https://eldercarematters.com/wp-content/uploads/job-manager-uploads/featured_image/2018/02/Marquardt-4-circles.jpg,
https://eldercarematters.com/wp-content/uploads/job-manager-uploads/featured_image/2018/02/NeptuneSociety_Logo.jpg,"Neptune Society",,,,https://eldercarematters.com/wp-content/uploads/job-manager-uploads/featured_image/2018/02/NeptuneSociety_Logo.jpg,
https://eldercarematters.com/wp-content/uploads/2018/02/sfox.jpg,sfox,,,,,
,,,,,,
https://eldercarematters.com/wp-content/uploads/job-manager-uploads/company_avatar/2018/02/logo.jpg,"Guardian Angel Home Care Srevices",,,,,
https://eldercarematters.com/wp-content/uploads/job-manager-uploads/featured_image/2018/02/2012-11-11-17.54.24.jpg|https://eldercarematters.com/wp-content/uploads/job-manager-uploads/company_avatar/2018/02/2012-11-11-17.54.24.jpg|https://eldercarematters.com/wp-content/uploads/job-manager-uploads/company_avatar/2018/02/2016-09-10-19.27.14-profile-shot.jpg,"Fergie&#8217;s Instructional Training (FIT) LLC|Fergie&#8217;s Instructional Training (FIT) LLC|Fergie&#8217;s Instructional Training (FIT) LLC",||,||,||,https://eldercarematters.com/wp-content/uploads/job-manager-uploads/featured_image/2018/02/2012-11-11-17.54.24.jpg,
https://eldercarematters.com/wp-content/uploads/job-manager-uploads/featured_image/2018/02/Genes-brush-stroke-picture.jpg,"Silverblatt Law Office &amp; Trust Services",,,,https://eldercarematters.com/wp-content/uploads/job-manager-uploads/featured_image/2018/02/Genes-brush-stroke-picture.jpg,
https://eldercarematters.com/wp-content/uploads/job-manager-uploads/featured_image/2018/02/Fotolia_1764230_XS1.jpg|https://eldercarematters.com/wp-content/uploads/job-manager-uploads/company_avatar/2018/02/Rose-Hand-Pic.jpg,"Lakewood Legal Center|Lakewood Legal Center",|,|,|,https://eldercarematters.com/wp-content/uploads/job-manager-uploads/featured_image/2018/02/Fotolia_1764230_XS1.jpg,
https://eldercarematters.com/wp-content/uploads/job-manager-uploads/featured_image/2018/02/d57b0048-700d-493c-82d8-3fa90b7aefa6.jpg|https://eldercarematters.com/wp-content/uploads/job-manager-uploads/company_avatar/2018/02/website-photo2.jpg,"Melynda Ruckels RN MSN Patient Advocate|Melynda Ruckels RN MSN Patient Advocate",|,|,|,https://eldercarematters.com/wp-content/uploads/job-manager-uploads/featured_image/2018/02/d57b0048-700d-493c-82d8-3fa90b7aefa6.jpg,
https://eldercarematters.com/wp-content/uploads/2018/02/small-e1519772078156.jpg|https://eldercarematters.com/wp-content/uploads/2019/01/small.png,"Estate Planning|small",|,|,"Estate Planning|Michigan Elder Law Attorney",,
https://eldercarematters.com/wp-content/uploads/2018/02/ibrower.jpg|https://eldercarematters.com/wp-content/uploads/2018/02/ibrower.gif,ibrower|ibrower,|,|,|,,
https://eldercarematters.com/wp-content/uploads/job-manager-uploads/featured_image/2018/03/TLJ-CloseUP.jpg|https://eldercarematters.com/wp-content/uploads/job-manager-uploads/company_avatar/2018/03/HH-logo-bitmap-jpg.jpg,"Home Helpers of Northeastern Illinois|Home Helpers of Northeastern Illinois",|,|,|,https://eldercarematters.com/wp-content/uploads/job-manager-uploads/featured_image/2018/03/TLJ-CloseUP.jpg,
https://eldercarematters.com/wp-content/uploads/job-manager-uploads/featured_image/2019/03/IMG-4558.jpg|https://eldercarematters.com/wp-content/uploads/job-manager-uploads/company_avatar/2019/03/Profile.jpg,"NC Senior Living Solutions|NC Senior Living Solutions",|,|,"|Elder Care Matters",https://eldercarematters.com/wp-content/uploads/job-manager-uploads/featured_image/2019/03/IMG-4558.jpg,
https://eldercarematters.com/wp-content/uploads/job-manager-uploads/company_avatar/2018/05/DarleneCroppedImage.jpg,"Darlene Minter, Darlene&#8217;s Virtual Services",,,,,
,,,,,,
https://eldercarematters.com/wp-content/uploads/job-manager-uploads/featured_image/2018/06/IMG_0725.jpg|https://eldercarematters.com/wp-content/uploads/job-manager-uploads/company_avatar/2018/06/pic-of-her-e1510078176538.jpg,"iReverse Home Loans|iReverse Home Loans",|,|,|,https://eldercarematters.com/wp-content/uploads/job-manager-uploads/featured_image/2018/06/IMG_0725.jpg,
,,,,,,
https://eldercarematters.com/wp-content/uploads/job-manager-uploads/company_avatar/2018/09/original.jpg,"ACL Home Care LLC",,,,,
https://eldercarematters.com/wp-content/uploads/job-manager-uploads/featured_image/2018/09/IMG_9124.jpg|https://eldercarematters.com/wp-content/uploads/job-manager-uploads/company_avatar/2018/09/IMG_9302.jpg,"PRIVATE SUITE HOME CARE AGENCY,LLC|PRIVATE SUITE HOME CARE AGENCY,LLC",|,|,|,https://eldercarematters.com/wp-content/uploads/job-manager-uploads/featured_image/2018/09/IMG_9124.jpg,
https://eldercarematters.com/wp-content/uploads/job-manager-uploads/featured_image/2018/11/shutterstock_52420441.jpg|https://eldercarematters.com/wp-content/uploads/job-manager-uploads/company_avatar/2018/11/logo-300377-small.jpg|https://eldercarematters.com/wp-content/uploads/job-manager-uploads/company_avatar/2018/11/logo-300377.png,"Rehmani &amp; Associates|Rehmani &amp; Associates|Rehmani &amp; Associates",||,||,||,https://eldercarematters.com/wp-content/uploads/job-manager-uploads/featured_image/2018/11/shutterstock_52420441.jpg,
https://eldercarematters.com/wp-content/uploads/job-manager-uploads/featured_image/2019/01/Esti-Z-LogoFinal-.jpg|https://eldercarematters.com/wp-content/uploads/job-manager-uploads/company_avatar/2019/01/IMG_8405-crop.jpg,"Esther Schwartz Zelmanovitz, PLLC|Esther Schwartz Zelmanovitz, PLLC",|,|,|,https://eldercarematters.com/wp-content/uploads/job-manager-uploads/featured_image/2019/01/Esti-Z-LogoFinal-.jpg,
https://eldercarematters.com/wp-content/uploads/job-manager-uploads/featured_image/2019/01/Logo.png|https://eldercarematters.com/wp-content/uploads/job-manager-uploads/company_avatar/2019/01/lawyer_kelli_allen_3599199_1522962517.jpg,"Kelli Y Allen Immigration &amp; Elder Law|Kelli Y Allen Immigration &amp; Elder Law",|,|,|,https://eldercarematters.com/wp-content/uploads/job-manager-uploads/featured_image/2019/01/Logo.png,
https://eldercarematters.com/wp-content/uploads/job-manager-uploads/featured_image/2019/01/P1310025.jpg|https://eldercarematters.com/wp-content/uploads/job-manager-uploads/company_avatar/2019/01/Logo-Copy.jpg,"BYRT Financial Advisors, LLC|BYRT Financial Advisors, LLC",|,|,|,https://eldercarematters.com/wp-content/uploads/job-manager-uploads/featured_image/2019/01/P1310025.jpg,
https://eldercarematters.com/wp-content/uploads/job-manager-uploads/company_avatar/2019/01/Logo-PNG-Original-1.png,"Aveida Home Care",,,,,
https://eldercarematters.com/wp-content/uploads/job-manager-uploads/featured_image/2019/03/Home-Care-Solutions.jpg|https://eldercarematters.com/wp-content/uploads/job-manager-uploads/company_avatar/2019/03/eshcsFooterImage.png,"E &amp; S Home Care Solutions|E &amp; S Home Care Solutions",|,|,|,https://eldercarematters.com/wp-content/uploads/job-manager-uploads/featured_image/2019/03/Home-Care-Solutions.jpg,
https://eldercarematters.com/wp-content/uploads/job-manager-uploads/featured_image/2019/03/6A96060E-62E3-4CD2-BBCF-319596E41AF8.jpeg|https://eldercarematters.com/wp-content/uploads/job-manager-uploads/company_avatar/2019/03/CA7C5D0F-166A-44B4-8FEE-4CB19EFBA29A.jpeg|https://eldercarematters.com/wp-content/uploads/job-manager-uploads/featured_image/2019/03/2E7C9C6D-69BC-4629-91A5-A5D6C9AB0FA8.jpeg,"Right at Home Orlando|Right at Home Orlando|Right at Home Orlando",||,||,||,https://eldercarematters.com/wp-content/uploads/job-manager-uploads/featured_image/2019/03/6A96060E-62E3-4CD2-BBCF-319596E41AF8.jpeg,
,,,,,,
https://eldercarematters.com/wp-content/uploads/job-manager-uploads/featured_image/2019/04/iStock_000001741816Medium.jpg|https://eldercarematters.com/wp-content/uploads/job-manager-uploads/company_avatar/2019/04/Katharina-Dress-photo-2016-BTA.jpg,"AGING IN HARMONY Conflict Resolution Services|AGING IN HARMONY Conflict Resolution Services",|,|,|,https://eldercarematters.com/wp-content/uploads/job-manager-uploads/featured_image/2019/04/iStock_000001741816Medium.jpg,
https://eldercarematters.com/wp-content/uploads/job-manager-uploads/featured_image/2019/04/Gpa-w-Girl-WEB-2.jpg|https://eldercarematters.com/wp-content/uploads/job-manager-uploads/company_avatar/2019/04/VA_Logo_Linear2014.jpg|https://eldercarematters.com/wp-content/uploads/job-manager-uploads/featured_image/2019/04/Book-Cover.jpg|https://eldercarematters.com/wp-content/uploads/job-manager-uploads/company_avatar/2019/04/dove_logo.jpg,"Visiting Angels|Visiting Angels|Visiting Angels|Visiting Angels",|||,|||,|||,https://eldercarematters.com/wp-content/uploads/job-manager-uploads/featured_image/2019/04/Gpa-w-Girl-WEB-2.jpg,
,,,,,,
https://eldercarematters.com/wp-content/uploads/job-manager-uploads/company_avatar/2019/04/HMD-LOGO.jpg,"Home Modification Design LLC",,,,,
,,,,,,
https://eldercarematters.com/wp-content/uploads/job-manager-uploads/company_avatar/2019/04/MassMutual-LOGO.png|https://eldercarematters.com/wp-content/uploads/job-manager-uploads/company_avatar/2019/04/massmutuallogo.jpg,MassMutual|MassMutual,|,|,|,,
https://eldercarematters.com/wp-content/uploads/job-manager-uploads/company_avatar/2019/04/Logo-Aviadental.png,"Avia Dental Plan",,,,,
https://eldercarematters.com/wp-content/uploads/job-manager-uploads/company_avatar/2019/04/Logo-and-Titleheaderonly.jpg|https://eldercarematters.com/wp-content/uploads/job-manager-uploads/company_avatar/2019/04/logo.png,"Shine Home Care, LLC|Shine Home Care, LLC",|,|,|,,
,,,,,,
https://eldercarematters.com/wp-content/uploads/job-manager-uploads/featured_image/2019/04/NewPaseSMM_BusinessCard_BACK-002.jpg|https://eldercarematters.com/wp-content/uploads/job-manager-uploads/company_avatar/2019/04/Just-diamond-black-green.png,"New Phase Senior Move Management|New Phase Senior Move Management",|,|,|,https://eldercarematters.com/wp-content/uploads/job-manager-uploads/featured_image/2019/04/NewPaseSMM_BusinessCard_BACK-002.jpg,
,,,,,,
https://eldercarematters.com/wp-content/uploads/job-manager-uploads/featured_image/2019/04/29541461_1719112311465759_5291502945844422748_n.png|https://eldercarematters.com/wp-content/uploads/job-manager-uploads/company_avatar/2019/04/logo-cp.jpg,"CrownPointe of Indianapolis|CrownPointe of Indianapolis",|,|,|,https://eldercarematters.com/wp-content/uploads/job-manager-uploads/featured_image/2019/04/29541461_1719112311465759_5291502945844422748_n.png,
,,,,,,
https://eldercarematters.com/wp-content/uploads/job-manager-uploads/company_avatar/2019/04/VA-logo-color.jpg|https://eldercarematters.com/wp-content/uploads/job-manager-uploads/company_avatar/2019/04/Photo-FF-CG-CLT-in-wheelchair.jpg,"Visiting Angels|Visiting Angels",|,|,|,,
https://eldercarematters.com/wp-content/uploads/job-manager-uploads/featured_image/2019/04/20190305_084824.jpg|https://eldercarematters.com/wp-content/uploads/job-manager-uploads/company_avatar/2019/04/Hayes-Law-Firm-Logo.jpg,"The Hayes Law Firm|The Hayes Law Firm",|,|,|,https://eldercarematters.com/wp-content/uploads/job-manager-uploads/featured_image/2019/04/20190305_084824.jpg,
https://eldercarematters.com/wp-content/uploads/job-manager-uploads/featured_image/2019/04/bizcrdScan-1.jpeg|https://eldercarematters.com/wp-content/uploads/job-manager-uploads/company_avatar/2019/04/bizcrdScan-1.jpeg,"Sort it Out! Senior Moving Specialist, Inc.|Sort it Out! Senior Moving Specialist, Inc.",|,|,|,,
https://eldercarematters.com/wp-content/uploads/job-manager-uploads/featured_image/2019/04/images-1.jpg|https://eldercarematters.com/wp-content/uploads/job-manager-uploads/featured_image/2019/04/jen.jpg|https://eldercarematters.com/wp-content/uploads/job-manager-uploads/company_avatar/2019/04/jen.jpg,"Burton Law and Title PL|Burton Law and Title PL|Burton Law and Title PL",||,||,||,https://eldercarematters.com/wp-content/uploads/job-manager-uploads/featured_image/2019/04/images-1.jpg,
https://eldercarematters.com/wp-content/uploads/job-manager-uploads/featured_image/2019/04/AmeriCare-Logo-6-2009-JPEG.jpg|https://eldercarematters.com/wp-content/uploads/job-manager-uploads/company_avatar/2019/04/AmeriCare-Logo-6-2009-JPEG-2.jpg|https://eldercarematters.com/wp-content/uploads/job-manager-uploads/featured_image/2019/04/Office-Bldg.jpg|https://eldercarematters.com/wp-content/uploads/job-manager-uploads/company_avatar/2019/04/Office-Bldg.jpg,"AmeriCare HomeCare|AmeriCare HomeCare|AmeriCare HomeCare|AmeriCare HomeCare",|||,|||,|||,https://eldercarematters.com/wp-content/uploads/job-manager-uploads/featured_image/2019/04/AmeriCare-Logo-6-2009-JPEG.jpg,
https://eldercarematters.com/wp-content/uploads/job-manager-uploads/company_avatar/2019/04/Mark-Headshot-in-suit.jpg|https://eldercarematters.com/wp-content/uploads/job-manager-uploads/featured_image/2019/04/BreunigLaw-logo_BOXED.jpg,"Breunig Law, Inc.|Breunig Law, Inc.",|,|,|,,
https://eldercarematters.com/wp-content/uploads/job-manager-uploads/featured_image/2019/04/ARL.png|https://eldercarematters.com/wp-content/uploads/job-manager-uploads/company_avatar/2019/04/Adams031919574-013-1.2MP.jpg,"Adams Law Office, LLC|Adams Law Office, LLC",|,|,|,https://eldercarematters.com/wp-content/uploads/job-manager-uploads/featured_image/2019/04/ARL.png,
https://eldercarematters.com/wp-content/uploads/job-manager-uploads/featured_image/2019/04/Portsmouth.jpg,"Lifetime Estate Liquidations &amp; Transitions/Keller Williams Realty/Nashua-Salem",,,,https://eldercarematters.com/wp-content/uploads/job-manager-uploads/featured_image/2019/04/Portsmouth.jpg,
https://eldercarematters.com/wp-content/uploads/job-manager-uploads/featured_image/2019/04/Portsmouth.jpg|https://eldercarematters.com/wp-content/uploads/job-manager-uploads/company_avatar/2019/04/new-picture.jpg,"Lifetime Estate Liquidations &amp; Transitions/Keller Williams Realty/Nashua-Salem|Lifetime Estate Liquidations &amp; Transitions/Keller Williams Realty/Nashua-Salem",|,|,|,https://eldercarematters.com/wp-content/uploads/job-manager-uploads/featured_image/2019/04/Portsmouth.jpg,
https://eldercarematters.com/wp-content/uploads/job-manager-uploads/featured_image/2019/04/chris-ensey-87456-unsplash.jpg|https://eldercarematters.com/wp-content/uploads/job-manager-uploads/company_avatar/2019/04/sandra-headshot.jpg,"The Caregivers Coach|The Caregivers Coach",|,|,|,https://eldercarematters.com/wp-content/uploads/job-manager-uploads/featured_image/2019/04/chris-ensey-87456-unsplash.jpg,
https://eldercarematters.com/wp-content/uploads/job-manager-uploads/featured_image/2019/04/187909626-1.jpeg|https://eldercarematters.com/wp-content/uploads/job-manager-uploads/company_avatar/2019/04/Screen-Shot-2018-07-05-at-12.07.18-PM.png,"A Life for Seniors|A Life for Seniors",|,|,|,https://eldercarematters.com/wp-content/uploads/job-manager-uploads/featured_image/2019/04/187909626-1.jpeg,
https://eldercarematters.com/wp-content/uploads/job-manager-uploads/company_avatar/2019/04/2017-cropped-picture-Marcia-.png,"Marcia L. Turner, PDMM, CSA",,,,,
https://eldercarematters.com/wp-content/uploads/job-manager-uploads/featured_image/2019/04/Background-pic-ElderCare-Matters-4.2019.jpg|https://eldercarematters.com/wp-content/uploads/job-manager-uploads/company_avatar/2019/04/Photo-in-library.jpg,"Andrew C. Friedmann, Attorney &amp; Counselor at Law|Andrew C. Friedmann, Attorney &amp; Counselor at Law",|,|,|,https://eldercarematters.com/wp-content/uploads/job-manager-uploads/featured_image/2019/04/Background-pic-ElderCare-Matters-4.2019.jpg,
,,,,,,
https://eldercarematters.com/wp-content/uploads/job-manager-uploads/company_avatar/2019/04/Untitled-design-2.jpg,"Family First Firm",,,,,
https://eldercarematters.com/wp-content/uploads/job-manager-uploads/company_avatar/2019/04/Logo-new.png,"BrightStar Care",,,,,
https://eldercarematters.com/wp-content/uploads/job-manager-uploads/featured_image/2019/04/953BBB8C-008B-4D3E-AC0D-FA61BC319B22.jpeg|https://eldercarematters.com/wp-content/uploads/job-manager-uploads/company_avatar/2019/04/0678CA77-910D-42A0-88C1-55F4907FC625.jpeg,"Silver Linings Transitions move management services|Silver Linings Transitions move management services",|,|,|,https://eldercarematters.com/wp-content/uploads/job-manager-uploads/featured_image/2019/04/953BBB8C-008B-4D3E-AC0D-FA61BC319B22.jpeg,
https://eldercarematters.com/wp-content/uploads/job-manager-uploads/company_avatar/2019/04/sweeney-logo-New-4-21-17.png,"Sweeney Legal LLC",,,,,
https://eldercarematters.com/wp-content/uploads/job-manager-uploads/company_avatar/2019/04/Tim-Kelly-2015.jpg,"Individual Commercial Brokerage, Inc.",,,,,
https://eldercarematters.com/wp-content/uploads/job-manager-uploads/featured_image/2019/04/AMS-Logo-Stacked.jpg|https://eldercarematters.com/wp-content/uploads/job-manager-uploads/company_avatar/2019/04/Keith-re-do-G-small.jpg,"Affordable Medicare Solutions|Affordable Medicare Solutions",|,|,|,https://eldercarematters.com/wp-content/uploads/job-manager-uploads/featured_image/2019/04/AMS-Logo-Stacked.jpg,
https://eldercarematters.com/wp-content/uploads/job-manager-uploads/featured_image/2019/04/ST-Bergen-County-NG-LLC-Logo-Vertical-Stacked-Black-with-Color-House.png|https://eldercarematters.com/wp-content/uploads/job-manager-uploads/company_avatar/2019/04/ST-Bergen-County-NG-LLC-Logo-Vertical-Stacked-Black-with-Color-House.png,"Smooth Transitions of Bergen County, NJ LLC|Smooth Transitions of Bergen County, NJ LLC",|,|,|,https://eldercarematters.com/wp-content/uploads/job-manager-uploads/featured_image/2019/04/ST-Bergen-County-NG-LLC-Logo-Vertical-Stacked-Black-with-Color-House.png,
https://eldercarematters.com/wp-content/uploads/job-manager-uploads/company_avatar/2019/04/IMG_04781.jpg,"Complete Hospice &amp; Palliative Care",,,,,
https://eldercarematters.com/wp-content/uploads/job-manager-uploads/featured_image/2019/04/EP1.jpg|https://eldercarematters.com/wp-content/uploads/job-manager-uploads/company_avatar/2019/04/Platon_Benjamin.jpg,"Law Office of Benjamin V. Platon II|Law Office of Benjamin V. Platon II",|,|,|,https://eldercarematters.com/wp-content/uploads/job-manager-uploads/featured_image/2019/04/EP1.jpg,
,,,,,,
,,,,,,
https://eldercarematters.com/wp-content/uploads/job-manager-uploads/company_avatar/2019/04/BROOK-HEALTH-HEART-3D-WEB-LOGO.gif,"Brook Health Care, LLC",,,,,
,,,,,,
https://eldercarematters.com/wp-content/uploads/job-manager-uploads/featured_image/2019/04/02-1.jpg|https://eldercarematters.com/wp-content/uploads/job-manager-uploads/company_avatar/2019/04/Sears0012-002-2.jpg,"June&#8217;s Team/Keller Williams Realty Partners|June&#8217;s Team/Keller Williams Realty Partners",|,|,|,https://eldercarematters.com/wp-content/uploads/job-manager-uploads/featured_image/2019/04/02-1.jpg,
,,,,,,
,,,,,,
https://eldercarematters.com/wp-content/uploads/job-manager-uploads/featured_image/2019/04/11259046_833177366737382_7054267280080038530_n.jpg|https://eldercarematters.com/wp-content/uploads/job-manager-uploads/company_avatar/2019/04/Poweredby_Honor_4EverYoung.jpg,"4Ever Young Living|4Ever Young Living",|,|,|,https://eldercarematters.com/wp-content/uploads/job-manager-uploads/featured_image/2019/04/11259046_833177366737382_7054267280080038530_n.jpg,
https://eldercarematters.com/wp-content/uploads/job-manager-uploads/featured_image/2019/04/master-care-pic.jpg|https://eldercarematters.com/wp-content/uploads/job-manager-uploads/company_avatar/2019/04/HDR.jpg,"MasterCare In Home Service Providers|MasterCare In Home Service Providers",|,|,|,https://eldercarematters.com/wp-content/uploads/job-manager-uploads/featured_image/2019/04/master-care-pic.jpg,
https://eldercarematters.com/wp-content/uploads/job-manager-uploads/featured_image/2019/04/Facebook-Event-Cover-New-Logo-2017-2.png|https://eldercarematters.com/wp-content/uploads/job-manager-uploads/company_avatar/2019/04/twitter-Profile_Photo___2807-BLG_FacebookAd_Birthday_360x360.jpg,"Burner Law Group, P.C.|Burner Law Group, P.C.",|,|,|,https://eldercarematters.com/wp-content/uploads/job-manager-uploads/featured_image/2019/04/Facebook-Event-Cover-New-Logo-2017-2.png,
https://eldercarematters.com/wp-content/uploads/job-manager-uploads/company_avatar/2019/04/beatitudes-logo-blue@4x.png,"Beatitudes Campus",,,,,
https://eldercarematters.com/wp-content/uploads/job-manager-uploads/company_avatar/2019/04/Nancy2.jpg,"Law Offices of Nancy Catalini Chew",,,,,
https://eldercarematters.com/wp-content/uploads/job-manager-uploads/company_avatar/2019/04/Changing-Tides-Stacked-wTag.jpg|https://eldercarematters.com/wp-content/uploads/job-manager-uploads/company_avatar/2019/04/Changing-Tides_colorlogo.png|https://eldercarematters.com/wp-content/uploads/job-manager-uploads/company_avatar/2019/04/Changing-Tides_color-logo.jpg|https://eldercarematters.com/wp-content/uploads/job-manager-uploads/company_avatar/2019/04/Changing-Tides_colorlogo-resized.jpg|https://eldercarematters.com/wp-content/uploads/job-manager-uploads/company_avatar/2019/04/Changing-Tides_colorlogo-resized-v2.jpg|https://eldercarematters.com/wp-content/uploads/job-manager-uploads/company_avatar/2019/04/Changing-Tides_colorlogo-resized-v3.jpg|https://eldercarematters.com/wp-content/uploads/job-manager-uploads/company_avatar/2019/04/Changing-Tides_colorlogo-resized-v4.jpg,"Changing Tides Home Care|Changing Tides Home Care|Changing Tides Home Care|Changing Tides Home Care|Changing Tides Home Care|Changing Tides Home Care|Changing Tides Home Care",||||||,||||||,||||||,,
https://eldercarematters.com/wp-content/uploads/job-manager-uploads/featured_image/2019/05/Doctor-with-Card-Header.png|https://eldercarematters.com/wp-content/uploads/job-manager-uploads/company_avatar/2019/05/Tag-DocuBank-Large.jpg|https://eldercarematters.com/wp-content/uploads/job-manager-uploads/featured_image/2019/05/doctor-with-db-card-very-cropped.jpg|https://eldercarematters.com/wp-content/uploads/job-manager-uploads/company_avatar/2019/05/Big-Icon-Little-Text.png|https://eldercarematters.com/wp-content/uploads/job-manager-uploads/featured_image/2019/05/DocuBank-Sample-Card-Web.png|https://eldercarematters.com/wp-content/uploads/job-manager-uploads/featured_image/2019/05/doctor-with-db-card-cropped.jpg|https://eldercarematters.com/wp-content/uploads/job-manager-uploads/featured_image/2019/05/Doctor-with-Card.jpg,"DocuBank | Worldwide Access Service|DocuBank | Instant Access to Emergency Medical Info &amp; Advance Directives|DocuBank | Instant Access to Emergency Medical Info &amp; Advance Directives|DocuBank | Instant Access to Emergency Medical Info &amp; Advance Directives|DocuBank | Instant Access to Emergency Medical Info &amp; Advance Directives|DocuBank | Instant Access to Emergency Medical Info &amp; Advance Directives|DocuBank | Instant Access to Emergency Medical Info &amp; Advance Directives",||||||,||||||,||||||,https://eldercarematters.com/wp-content/uploads/job-manager-uploads/featured_image/2019/05/Doctor-with-Card-Header.png,
https://eldercarematters.com/wp-content/uploads/job-manager-uploads/featured_image/2019/05/D255787B-1593-48D5-AE9F-9D4B67A4B42E.jpeg|https://eldercarematters.com/wp-content/uploads/job-manager-uploads/company_avatar/2019/05/69722B7A-48C0-433D-B8F1-3C1A4453B39F.jpeg,"Lincoln Financial Advisors|Lincoln Financial Advisors",|,|,|,https://eldercarematters.com/wp-content/uploads/job-manager-uploads/featured_image/2019/05/D255787B-1593-48D5-AE9F-9D4B67A4B42E.jpeg,
https://eldercarematters.com/wp-content/uploads/job-manager-uploads/featured_image/2019/05/ap.jpg|https://eldercarematters.com/wp-content/uploads/job-manager-uploads/company_avatar/2019/05/Logo-With-Practice-Areas.png|https://eldercarematters.com/wp-content/uploads/job-manager-uploads/company_avatar/2019/05/LB-Black-1.png,"Love &amp; Blomquist, LLC|Love &amp; Blomquist, LLC|Love &amp; Blomquist, LLC",||,||,||,https://eldercarematters.com/wp-content/uploads/job-manager-uploads/featured_image/2019/05/ap.jpg,
https://eldercarematters.com/wp-content/uploads/job-manager-uploads/featured_image/2019/05/Cleveland.jpg|https://eldercarematters.com/wp-content/uploads/job-manager-uploads/company_avatar/2019/05/KipCo.Logo2cBleedOnly-1.jpg|https://eldercarematters.com/wp-content/uploads/job-manager-uploads/company_avatar/2019/05/KipCo.Logo2cBleedOnly-1-1.jpg|https://eldercarematters.com/wp-content/uploads/job-manager-uploads/company_avatar/2019/05/Don.jpg,"Kiplinger &amp; Co., CPAs|Kiplinger &amp; Co., CPAs|Kiplinger &amp; Co., CPAs|Kiplinger &amp; Co., CPAs",|||,|||,|||,https://eldercarematters.com/wp-content/uploads/job-manager-uploads/featured_image/2019/05/Cleveland.jpg,
https://eldercarematters.com/wp-content/uploads/job-manager-uploads/featured_image/2019/05/RightAtHome_14119128.jpg|https://eldercarematters.com/wp-content/uploads/job-manager-uploads/company_avatar/2019/05/right-care-and-logo.jpg|https://eldercarematters.com/wp-content/uploads/job-manager-uploads/featured_image/2019/05/Empty_Nester_7_700x366_with_words.jpg|https://eldercarematters.com/wp-content/uploads/job-manager-uploads/company_avatar/2019/05/facebook-logo-thumb-1.jpg|https://eldercarematters.com/wp-content/uploads/job-manager-uploads/featured_image/2019/05/AD44_RetiredRecruitmentHalo1_8_125x10_5_FORM-1.jpg,"Right at Home Bozeman|Right at Home Bozeman|Right at Home Bozeman|Right at Home Bozeman|Right at Home Bozeman",||||,||||,||||,https://eldercarematters.com/wp-content/uploads/job-manager-uploads/featured_image/2019/05/RightAtHome_14119128.jpg,
https://eldercarematters.com/wp-content/uploads/job-manager-uploads/featured_image/2019/05/angel-companions-senior-care-agency-marietta-1.jpg|https://eldercarematters.com/wp-content/uploads/job-manager-uploads/company_avatar/2019/05/Angel-Companions-Square-logo-1.jpg,"Angel Companions Senior Care|Angel Companions Senior Care",|,|,|,https://eldercarematters.com/wp-content/uploads/job-manager-uploads/featured_image/2019/05/angel-companions-senior-care-agency-marietta-1.jpg,
https://eldercarematters.com/wp-content/uploads/job-manager-uploads/featured_image/2019/05/D20846EF-7C35-4ABC-B900-BF668749FE4E.jpeg|https://eldercarematters.com/wp-content/uploads/job-manager-uploads/company_avatar/2019/05/C0D4FAD9-C624-4F39-9B96-2DE7F70B929D.jpeg|https://eldercarematters.com/wp-content/uploads/job-manager-uploads/company_avatar/2019/05/173C10A6-219B-43BB-A53E-9370BAC0C556.jpeg,"La Bella Legacy Adult Senior Day Program|La Bella Legacy Adult Senior Day Program|La Bella Legacy Adult Senior Day Program",||,||,||,https://eldercarematters.com/wp-content/uploads/job-manager-uploads/featured_image/2019/05/D20846EF-7C35-4ABC-B900-BF668749FE4E.jpeg,
https://eldercarematters.com/wp-content/uploads/job-manager-uploads/company_avatar/2019/05/ESL_FINAL-01.jpg,"Elder Solutions Law Firm",,,,,
https://eldercarematters.com/wp-content/uploads/job-manager-uploads/featured_image/2019/05/Elder-Law-Firm-Logo-Color.jpg|https://eldercarematters.com/wp-content/uploads/job-manager-uploads/company_avatar/2019/05/Elder-Law-Firm-Logo-Color.jpg|https://eldercarematters.com/wp-content/uploads/job-manager-uploads/company_avatar/2019/05/ShelleyandStephen2-1.jpg,"Elder Law Firm|Elder Law Firm|Elder Law Firm",||,||,||,https://eldercarematters.com/wp-content/uploads/job-manager-uploads/featured_image/2019/05/Elder-Law-Firm-Logo-Color.jpg,
https://eldercarematters.com/wp-content/uploads/job-manager-uploads/featured_image/2019/05/DAH_072-HDR-1.jpg|https://eldercarematters.com/wp-content/uploads/job-manager-uploads/company_avatar/2019/05/Professional-photo.jpg|https://eldercarematters.com/wp-content/uploads/job-manager-uploads/featured_image/2019/05/1826-2.jpg,"DESIGNS ANEW HOUSTON LLC|DESIGNS ANEW HOUSTON LLC|DESIGNS ANEW HOUSTON LLC",||,||,||,https://eldercarematters.com/wp-content/uploads/job-manager-uploads/featured_image/2019/05/DAH_072-HDR-1.jpg,
https://eldercarematters.com/wp-content/uploads/job-manager-uploads/company_avatar/2019/05/Trademark.jpg|https://eldercarematters.com/wp-content/uploads/job-manager-uploads/company_avatar/2019/05/IMG_8858_pp.jpg|https://eldercarematters.com/wp-content/uploads/job-manager-uploads/company_avatar/2019/05/img_0015-2.jpg,"Morana Law Office|Morana Law Office|Morana Law Office",||,||,||,,
https://eldercarematters.com/wp-content/uploads/job-manager-uploads/featured_image/2019/05/Yosemite-National-Park-Waterfall.jpg|https://eldercarematters.com/wp-content/uploads/job-manager-uploads/company_avatar/2019/05/Law-Office-of-Jeffrey-Hall-PC-2-good2.png|https://eldercarematters.com/wp-content/uploads/job-manager-uploads/company_avatar/2019/05/2019-02-18_JeffreyHall_027.jpg,"Law Office of Jeffrey Hall, Inc.|Law Office of Jeffrey Hall, Inc.|Law Office of Jeffrey Hall, Inc.",||,||,||,https://eldercarematters.com/wp-content/uploads/job-manager-uploads/featured_image/2019/05/Yosemite-National-Park-Waterfall.jpg,
https://eldercarematters.com/wp-content/uploads/job-manager-uploads/featured_image/2019/05/Flower.jpg|https://eldercarematters.com/wp-content/uploads/job-manager-uploads/company_avatar/2019/05/profile_cynthia-r-pollock_lg.jpg|https://eldercarematters.com/wp-content/uploads/job-manager-uploads/featured_image/2019/05/logo.png|https://eldercarematters.com/wp-content/uploads/job-manager-uploads/featured_image/2019/05/pollock_standing_group.jpg|https://eldercarematters.com/wp-content/uploads/job-manager-uploads/company_avatar/2019/05/Cynthia-Headshot-_I8A0612-RTPT-Smaller.jpg,"Cox Law Group, Inc.|Cox Law Group, Inc.|Cox Law Group, Inc.|Cox Law Group, Inc.|Cox Law Group, Inc.",||||,||||,||||,https://eldercarematters.com/wp-content/uploads/job-manager-uploads/featured_image/2019/05/Flower.jpg,
https://eldercarematters.com/wp-content/uploads/job-manager-uploads/featured_image/2019/05/2019-HCP-Logos.jpg|https://eldercarematters.com/wp-content/uploads/job-manager-uploads/company_avatar/2019/05/JPEG-wPhone.jpg,"Right at Home|Right at Home",|,|,|,https://eldercarematters.com/wp-content/uploads/job-manager-uploads/featured_image/2019/05/2019-HCP-Logos.jpg,
https://eldercarematters.com/wp-content/uploads/job-manager-uploads/featured_image/2019/05/D567DECC-6C90-483E-9DB6-6B7C9AF62DB6-1.jpeg|https://eldercarematters.com/wp-content/uploads/job-manager-uploads/company_avatar/2019/05/3CA3FCD5-CDEF-4354-BC88-42526EAFBC0A-1.jpeg,"New Day Pastoral Counseling Services|New Day Pastoral Counseling Services",|,|,|,https://eldercarematters.com/wp-content/uploads/job-manager-uploads/featured_image/2019/05/D567DECC-6C90-483E-9DB6-6B7C9AF62DB6-1.jpeg,
https://eldercarematters.com/wp-content/uploads/job-manager-uploads/company_avatar/2019/05/LWPElogo_from_web_site.png|https://eldercarematters.com/wp-content/uploads/job-manager-uploads/company_avatar/2019/05/LWP_New_sign.jpg|https://eldercarematters.com/wp-content/uploads/job-manager-uploads/company_avatar/2019/05/DJE-head-shot-1.jpg,"Levey, Wagley, Putman &amp; Eccher, PA|Levey, Wagley, Putman &amp; Eccher, PA|Levey, Wagley, Putman &amp; Eccher, PA",||,||,||,,
https://eldercarematters.com/wp-content/uploads/job-manager-uploads/featured_image/2019/05/logo1-resized-for-Google-2-25-19-1.jpg|https://eldercarematters.com/wp-content/uploads/job-manager-uploads/company_avatar/2019/05/logo1-Assisting-Hearts-Logo-Small-2-25-19.jpg|https://eldercarematters.com/wp-content/uploads/job-manager-uploads/company_avatar/2019/05/Assisting-Hearts-Logo-10-24-18.jpg|https://eldercarematters.com/wp-content/uploads/job-manager-uploads/featured_image/2019/05/Assisting-Hearts-Logo-10-24-18.jpg|https://eldercarematters.com/wp-content/uploads/job-manager-uploads/featured_image/2019/05/logo1-resized-for-Google-2-25-19.jpg|https://eldercarematters.com/wp-content/uploads/job-manager-uploads/company_avatar/2019/05/logo1-resized-for-Google-2-25-19.jpg,"Assisting Hearts Home Care|Assisting Hearts Home Care|Assisting Hearts Home Care|Assisting Hearts Home Care|Assisting Hearts Home Care|Assisting Hearts Home Care",|||||,|||||,|||||,https://eldercarematters.com/wp-content/uploads/job-manager-uploads/featured_image/2019/05/logo1-resized-for-Google-2-25-19-1.jpg,
https://eldercarematters.com/wp-content/uploads/job-manager-uploads/featured_image/2019/05/caregiver3.jpg|https://eldercarematters.com/wp-content/uploads/job-manager-uploads/company_avatar/2019/05/ASSERTIVE-LOGO-V2.jpg|https://eldercarematters.com/wp-content/uploads/job-manager-uploads/featured_image/2019/05/IMG_0938.jpg|https://eldercarematters.com/wp-content/uploads/job-manager-uploads/featured_image/2019/05/102_0300.jpg|https://eldercarematters.com/wp-content/uploads/job-manager-uploads/featured_image/2019/05/IMG_0623.jpg|https://eldercarematters.com/wp-content/uploads/job-manager-uploads/featured_image/2019/05/IMG_1060.jpg|https://eldercarematters.com/wp-content/uploads/job-manager-uploads/featured_image/2019/05/IMG_0623-1.jpg|https://eldercarematters.com/wp-content/uploads/job-manager-uploads/featured_image/2019/05/11949404_940113089383497_1924059200069288738_n.jpg|https://eldercarematters.com/wp-content/uploads/job-manager-uploads/featured_image/2019/05/Caregiver_and_Client.jpg,"Assertive Home Care Services|Assertive Home Care Services|Assertive Home Care Services|Assertive Home Care Services|Assertive Home Care Services|Assertive Home Care Services|Assertive Home Care Services|Assertive Home Care Services|Assertive Home Care Services",||||||||,||||||||,||||||||,https://eldercarematters.com/wp-content/uploads/job-manager-uploads/featured_image/2019/05/caregiver3.jpg,
https://eldercarematters.com/wp-content/uploads/job-manager-uploads/featured_image/2019/05/CCT-with-website.jpg|https://eldercarematters.com/wp-content/uploads/job-manager-uploads/company_avatar/2019/05/JMarcusHeadshot-web.jpeg|https://eldercarematters.com/wp-content/uploads/job-manager-uploads/featured_image/2019/05/cct-logo-standard-tagline-v2.jpg|https://eldercarematters.com/wp-content/uploads/job-manager-uploads/featured_image/2019/05/CCT-Header-FINAL.jpg,"Commonwealth Community Trust|Commonwealth Community Trust|Commonwealth Community Trust|Commonwealth Community Trust",|||,|||,|||,https://eldercarematters.com/wp-content/uploads/job-manager-uploads/featured_image/2019/05/CCT-with-website.jpg,
,,,,,,
,,,,,,
https://eldercarematters.com/wp-content/uploads/job-manager-uploads/featured_image/2019/05/DSL-New-Logo-2017-1-2.png|https://eldercarematters.com/wp-content/uploads/job-manager-uploads/company_avatar/2019/05/DSL-New-Logo-2017-1-1.png|https://eldercarematters.com/wp-content/uploads/job-manager-uploads/featured_image/2019/05/dsl-crossville-exterior.jpg|https://eldercarematters.com/wp-content/uploads/job-manager-uploads/company_avatar/2019/05/headshot-1.png,"Dominion Senior Living|Dominion Senior Living|Dominion Senior Living|Dominion Senior Living",|||,|||,|||,https://eldercarematters.com/wp-content/uploads/job-manager-uploads/featured_image/2019/05/DSL-New-Logo-2017-1-2.png,
https://eldercarematters.com/wp-content/uploads/job-manager-uploads/company_avatar/2019/05/Lisa2018-dark-hair.jpg|https://eldercarematters.com/wp-content/uploads/job-manager-uploads/featured_image/2019/05/LL-Black-border.png|https://eldercarematters.com/wp-content/uploads/job-manager-uploads/featured_image/2019/05/LawyerLisaTransparentIconWhiteText-1.png|https://eldercarematters.com/wp-content/uploads/job-manager-uploads/featured_image/2019/05/ll-logo-on-black.png,"LawyerLisa, LLC|LawyerLisa, LLC|LawyerLisa, LLC|LawyerLisa, LLC",|||,|||,|||,,
https://eldercarematters.com/wp-content/uploads/job-manager-uploads/featured_image/2019/05/43104949_1898303173618683_8550373064120991744_o.jpg|https://eldercarematters.com/wp-content/uploads/job-manager-uploads/company_avatar/2019/05/20140815Barr-Private-Care.png|https://eldercarematters.com/wp-content/uploads/job-manager-uploads/company_avatar/2019/05/20140815Barr-Private-Care-logo1.jpg|https://eldercarematters.com/wp-content/uploads/job-manager-uploads/company_avatar/2019/05/20140815Barr-Private-Care-logo.jpg,"Barr Private Care|Barr Private Care|Barr Private Care|Barr Private Care",|||,|||,|||,https://eldercarematters.com/wp-content/uploads/job-manager-uploads/featured_image/2019/05/43104949_1898303173618683_8550373064120991744_o.jpg,
https://eldercarematters.com/wp-content/uploads/job-manager-uploads/featured_image/2019/05/Branaugh-Law-Offices-Final-Logo-1.jpg|https://eldercarematters.com/wp-content/uploads/job-manager-uploads/company_avatar/2019/05/PJB.jpg|https://eldercarematters.com/wp-content/uploads/job-manager-uploads/company_avatar/2019/05/BLAW-5.jpg|https://eldercarematters.com/wp-content/uploads/job-manager-uploads/company_avatar/2019/05/PJB-1.jpg|https://eldercarematters.com/wp-content/uploads/job-manager-uploads/company_avatar/2019/05/BLAW-4.jpg|https://eldercarematters.com/wp-content/uploads/job-manager-uploads/company_avatar/2019/05/Preston-7-08-1.jpg|https://eldercarematters.com/wp-content/uploads/job-manager-uploads/company_avatar/2019/05/Branaugh-Law-Offices-Final-Logo.jpg,"Branaugh Law Offices, P.C.|Branaugh Law Offices, P.C.|Branaugh Law Offices, P.C.|Branaugh Law Offices, P.C.|Branaugh Law Offices, P.C.|Branaugh Law Offices, P.C.|Branaugh Law Offices, P.C.",||||||,||||||,||||||,https://eldercarematters.com/wp-content/uploads/job-manager-uploads/featured_image/2019/05/Branaugh-Law-Offices-Final-Logo-1.jpg,
https://eldercarematters.com/wp-content/uploads/job-manager-uploads/company_avatar/2019/05/logo.png|https://eldercarematters.com/wp-content/uploads/job-manager-uploads/featured_image/2019/05/Ad-JPG.png|https://eldercarematters.com/wp-content/uploads/job-manager-uploads/featured_image/2019/05/Ad-JPG-80.jpg,"Familiar Surroundings Home Care|Familiar Surroundings Home Care|Familiar Surroundings Home Care",||,||,||,,
https://eldercarematters.com/wp-content/uploads/job-manager-uploads/featured_image/2019/05/business_back-1.png|https://eldercarematters.com/wp-content/uploads/job-manager-uploads/company_avatar/2019/05/Wagner-102small.jpg|https://eldercarematters.com/wp-content/uploads/job-manager-uploads/featured_image/2019/05/business_back.png|https://eldercarematters.com/wp-content/uploads/job-manager-uploads/company_avatar/2019/05/wagner-photo-copy.jpg|https://eldercarematters.com/wp-content/uploads/job-manager-uploads/featured_image/2019/05/business_front-1.png,"Wagner Law|Wagner Law|Wagner Law|Wagner Law|Wagner Law",||||,||||,||||,https://eldercarematters.com/wp-content/uploads/job-manager-uploads/featured_image/2019/05/business_back-1.png,
https://eldercarematters.com/wp-content/uploads/job-manager-uploads/featured_image/2019/05/Homecare_pos_CMYK_on-white-3.jpg|https://eldercarematters.com/wp-content/uploads/job-manager-uploads/company_avatar/2019/05/Hired-Hands-25th-Logo.jpg,"Hired Hands Homecare|Hired Hands Homecare",|,|,|,https://eldercarematters.com/wp-content/uploads/job-manager-uploads/featured_image/2019/05/Homecare_pos_CMYK_on-white-3.jpg,
,,,,,,
https://eldercarematters.com/wp-content/uploads/job-manager-uploads/featured_image/2019/05/FB-MCB-Cover-Photo-New-2.jpg|https://eldercarematters.com/wp-content/uploads/job-manager-uploads/company_avatar/2019/05/MCB-Logo-New.jpg|https://eldercarematters.com/wp-content/uploads/job-manager-uploads/company_avatar/2019/05/M5_cmyk.jpg,"Martha C. Brown &amp; Associates, LLC|Martha C. Brown &amp; Associates, LLC|Martha C. Brown &amp; Associates, LLC",||,||,||,https://eldercarematters.com/wp-content/uploads/job-manager-uploads/featured_image/2019/05/FB-MCB-Cover-Photo-New-2.jpg,
https://eldercarematters.com/wp-content/uploads/job-manager-uploads/featured_image/2019/05/004-OD-Business-Card-Outlined-01.jpg|https://eldercarematters.com/wp-content/uploads/job-manager-uploads/company_avatar/2019/05/Deitering-Headshot.jpg,"Oldham and Deitering LLC|Oldham and Deitering LLC",|,|,|,https://eldercarematters.com/wp-content/uploads/job-manager-uploads/featured_image/2019/05/004-OD-Business-Card-Outlined-01.jpg,
https://eldercarematters.com/wp-content/uploads/job-manager-uploads/featured_image/2019/05/Eledercareadd9.jpg|https://eldercarematters.com/wp-content/uploads/job-manager-uploads/company_avatar/2019/05/LogoML.png|https://eldercarematters.com/wp-content/uploads/job-manager-uploads/featured_image/2019/05/Screen-Shot-2019-05-09-at-11.38.48-AM.png|https://eldercarematters.com/wp-content/uploads/job-manager-uploads/featured_image/2019/05/Eledercareadd-1.jpg|https://eldercarematters.com/wp-content/uploads/job-manager-uploads/featured_image/2019/05/Eledercareadd-2.jpg|https://eldercarematters.com/wp-content/uploads/job-manager-uploads/featured_image/2019/05/Eledercareadd2-1.jpg|https://eldercarematters.com/wp-content/uploads/job-manager-uploads/featured_image/2019/05/Eledercareadd3.jpg|https://eldercarematters.com/wp-content/uploads/job-manager-uploads/featured_image/2019/05/Eledercareadd4.jpg|https://eldercarematters.com/wp-content/uploads/job-manager-uploads/featured_image/2019/05/Eledercareadd7.jpg|https://eldercarematters.com/wp-content/uploads/job-manager-uploads/featured_image/2019/05/Eledercareadd7-1.jpg|https://eldercarematters.com/wp-content/uploads/job-manager-uploads/featured_image/2019/05/Eledercareadd8.jpg,Memory-Lane.tv|Memory-Lane.tv|Memory-Lane.tv|Memory-Lane.tv|Memory-Lane.tv|Memory-Lane.tv|Memory-Lane.tv|Memory-Lane.tv|Memory-Lane.tv|Memory-Lane.tv|Memory-Lane.tv,||||||||||,||||||||||,||||||||||,https://eldercarematters.com/wp-content/uploads/job-manager-uploads/featured_image/2019/05/Eledercareadd9.jpg,
https://eldercarematters.com/wp-content/uploads/job-manager-uploads/company_avatar/2019/05/VA_StackedLogo.jpg|https://eldercarematters.com/wp-content/uploads/job-manager-uploads/company_avatar/2019/05/10_year_anniversary-seal-blu-01-003.png|https://eldercarematters.com/wp-content/uploads/job-manager-uploads/company_avatar/2019/05/10_year_anniversary-seal-blu-01-003-1.png,"Visiting Angels|Visiting Angels|Visiting Angels",||,||,||,,
