id,Title,Email
1899,"Antonini CPAs LLP",orlando@antoninicpa.com
1905,"Legacy Group",info@legacy-group.org
1907,"Henry C. Weatherby - Weatherby & Associates, PC",hank@weatherby-associates.com
1919,"Barron, Rosenberg, Mayoras &amp; Mayoras, P.C.",rosedr@brmmlaw.com
1925,"Corliss Law Group",marie@corlisslawgroup.com
1939,"Senior Support Solutions, LLC",info@srsupportsolutions.com
1952,"The Law Office of James C. Siebert &amp; Associates, P.C.",james@jcslaw.com
1954,"Ruggiero Law Offices, LLC",info@paolilaw.com
1962,"Desert Care Management",heather@desertcaremanagement.com
1996,"Right at Home, NYC",gsimons@rahnyc.com
2002,"Tully Law, PC",brian@tullyelderlaw.com
2004,"Visiting Angels East Valley",bob@visitingangelsaz.com
2008,"Meyers & Welch",agchristensen@yahoo.com
2013,"Hoosier Senior Solutions",kevin@hoosierseniorsolutions.com
2032,"Norris McLaughlin Elder Care & Special Needs Law",ssiegel@norris-law.com
2036,"HomeHelpers of Los Angeles and Long Beach",stacy@homehelpershomecare.com
2044,"Goldberg Sager &amp; Associates",brooklynlawyer@aol.com
2045,"Law Office of Stephen J. Silverberg, PC",sjs@sjslawpc.com
2051,"Ronald Fatoullah & Associates",rfatoullah@fatoullahlaw.com
2072,"Sheri R. Abrams, Attorney at Law",sheri@sheriabram.com
2288,"Astin Home Care",Care@AstinHome.com
2646,"Dennis M. Sandoval, A Professional Law Corporation",dennis@riversideprobateattorney.com
2659,"KKJ Consulting, LLC",kkj@kkjconsults.net
2690,"Franchina &#038; Giordano, P.C.",mpg@elderlawfg.com
3015,HomeCare.com,directories@homecare.com
3026,"Nursing Home Health Care in Iowa",colonialmanors@gmail.com
3029,"Community Nursing &amp; Rehabilitation Services Center in Iowa",rockwellnursinghome@gmail.com
5187,"Hegwood Law Group, PLLC",kim@hegwoodlaw.com
5189,"Ocean Soul Renewal",robert@oceansoulrenewal.us
5203,"Home Care Partners, LLC",jdmiller@homecarepartners.biz
5217,"ANYTHING BUT CHAOS PROFESSIONALS, LLC",ABCPROF@CHARTER.NET
5241,"Law Offices of Barry R. Crimmins, P.C.",barry@brc-law.com
5265,"Lawson Professional Fiduciary Services",jlawsonphd@gmail.com
5289,"Law Offices of Weiss &amp; Tom, L.L.C.",marytomesq500@gmail.com
5350,"Israel &amp; Gerity, PLLC",mgerity@ig-law.com
5355,"Carr Law Group PA",info@carrlawgroup.com
5360,"Law Offices of Alice A Salvo",mel@salvolaw.com
5364,"LifeSpan Care Management LLC",info@lifespancm.com
5375,"Ivey, Barnum &amp; O'Mara, LLC",dcastronovo@ibolaw.com
5391,"Discreet Solutions",discreetsolutions10@gmail.com
5398,"Robert C Rosenfeld",robert@robertcrosenfeld.com
5405,"Branaugh Law Offices, P.C.",Preston@BranaughPC.com
5437,"Simon J. Lebo, Esq.",Slebo@bpslawyers.com
5438,"Thomas Fiduciary Services, Trustee, Conservatorships, Guardinaships, Trust &amp; Estate Adminstration.",thomasusa@earthlink.net
5468,"Attorney Joanne Leifheit, LLC",Ask@LawOfficeofJL.com
5479,"Personal Med Management Inc",personalmedmanagement@gmail.com
5490,"In Good Hands Medicaid Consulting LLC",ingoodhandsmedicaid@gmail.com
5527,"Mary Ellen Leslie &amp; Associates",meleslie@raex.com
5538,"Interim HealthCare",smithsue@interimhealthcare.com
5552,"Banker Law Office, PLLC",yvette@phoenixelderlaw.com
5654,"Walter A Twachtman, Jr.",wtwachtman@bgtlaw.com
5658,"Bonnie M. Benson, P.A.",bbenson@bonniebenson.com
5665,"The Organizer",orgnizr18@cs.com
5671,"The Organizer",orgnizr18@cs.com
5745,"Ritchie Financial/The LTC STORE",suephx@aol.com
5778,"The Bradley Law Firm, PLLC",anthony@bradley-law.com
5782,CareFor,cvergara@carefor.com
5826,"Changes Home Care",Marisa@changeshomecare.com
5845,"Paule, Camazine &amp; Blumenthal P.C.",jbrammeier@pcblawfirm.com
5867,"Stefans Law Group PC",info@sa-tax.com
5903,"Joyful Dental Care",office@joyfuldentalcare.com
5940,"Care Navigators Inc.",katie@care-navigators.com
5960,"Law Office of James C. Siebert &amp; Associates, P.C.",james@jcslaw.com
5967,"Home Care Assistance of Palm Beach County",bbrown@homecareassistance.com
6057,"Patricia E. Kefalas Dudek &amp; Associates",pdudek@pekdadvocacy.com
6074,"Silver American Insurance",silveramerins@msn.com
6119,"Donna J. Jackson &amp; Associates, PLLC",donnajacksonlaw@outlook.com
6151,"Larson Latham Huettl LLP",glarson@bismarcklaw.com
6156,"Karen S. Keaton, Esq., Gulf Beaches Law, P.A.",Karen@GulfBeachesLaw.com
6166,"Marquardt Law Firm, P.C.",lori@marquardtlawfirm.com
6175,"Neptune Society",paula.sexton@sci-us.com
6189,"Geriatric and Disability Medicine",fox@geri-doctor.com
6209,"Fergie's Instructional Training (FIT) LLC",Letsgo@transformurlifetoday.com
6229,"Lakewood Legal Center",rose@zaporelderlaw.com
6236,"Melynda Ruckels RN MSN Patient Advocate",melynda@melyndaruckels.com
6261,"Mall Malisow &amp; Cooney The Eldercare Law Firm",Sjmjd@theeldercarelawfirm.com
6383,"Home Helpers of Northeastern Illinois",WeCare6@att.net
6465,"NC Senior Living Solutions",smerritt@ncseniorlivingsolutions.com
7534,"Darlene Minter, Darlene's Virtual Services",darlene@darlenesvirtualservices.com
7951,"As Memories Fade",judydangelo18@gmail.com
8480,"iReverse Home Loans - Eva Cutler, Reverse Mortgage Specialist",ecutler@ireverse.com
9709,"Rehmani &amp; Associates",suzanne@rehmanilawfirm.com
10248,"Esther Schwartz Zelmanovitz, PLLC",contact@nytrustlaw.com
10280,"Kelli Y Allen Immigration &amp; Elder Law",kelli@kyalaw.com
10338,"BYRT Financial Advisors, LLC",byrtfinancial@byrt.com
10345,"Aveida Home Care",info@aveidahomecare.com
10612,"E &amp; S Home Care Solutions",info@eshcs.com
10787,"Right at Home Orlando",nikki@seniorcareorlando.com
10868,"Judy Mishler/CNA",JMISHLER88@HOTMAIL.COM
11206,"AGING IN HARMONY Conflict Resolution Services",katharina@aginginharmony.com
11242,"Visiting Angels",vangels@verizon.net
11338,"Garden State Trust Company",ktalke@gstrustco.com
11411,"Home Modification Design LLC",hmd.llc@hotmail.com
11749,MassMutual,amatrone@financialguide.com
11762,"Avia Dental Plan",info@aviadental.com
11797,"Shine Home Care, LLC",info@shinehomecare.us
11993,"ETHERIEDGE &amp; ASSOCIATES, PC",jde@etheriedge.com
11999,"New Phase Senior Move Management",debbie@newphasemove.com
12053,"Tirey Insurance Agency, Inc.",TireyInsurance@aol.com
12064,"CrownPointe of Indianapolis",lweaver@cpcommunities.com
12103,"Homewatch CareGivers of Nashville",ljacobs@homewatchcaregivers.com
12113,"Visiting Angels",jchamberlain@visitingangels.com
12183,"The Hayes Law Firm",info@losangelestrustlaw.com
12222,"Sort it Out! Senior Moving Specialist, Inc.",lacroix.suzanne@gmail.com
12224,"Burton Law and Title PL",admin@burtonlawandtitle.com
12274,"AmeriCare HomeCare",americarenc@gmail.com
12280,"Breunig Law, Inc.",info@breuniglaw.com
12332,"Adams Law Office, LLC",admin@adamslawoffice.net
12371,"Lifetime Estate Liquidations &amp; Transitions/Keller Williams Realty/Nashua-Salem",kbaldridge@kw.com
12377,"Lifetime Estate Liquidations &amp; Transitions/Keller Williams Realty/Nashua-Salem",kbaldridge@kw.com
12388,"The Caregivers Coach",hello@thecaregiverscoach.com
12565,"A Life for Seniors",amelia@alifeforseniors.com
12577,"Marcia L. Turner, PDMM, CSA",mlturnerpdmm@outlook.com
12608,"Andrew C. Friedmann, Attorney &amp; Counselor at Law",acfesq@aol.com
12624,"Griswold Home Care Metrowest-Boston",maoffice@griswoldhomecare.com
12653,"Family First Firm",general@familyfirstfirm.com
12667,"BrightStar Care",donny.sepin@brightstarcare.com
12714,"Silver Linings Transitions move management services",Info@silverliningstransitions.com
12794,"Individual Commercial Brokerage, Inc.",tim.k@youricb.com
12813,"Affordable Medicare Solutions",keith@amsplans.com
12845,"Smooth Transitions of Bergen County, NJ LLC",ctroutjohnson@gmail.com
12857,"Complete Hospice &amp; Palliative Care",rose@completehospice.com
12900,"Law Office of Benjamin V. Platon II",BPlaton@PlatonLaw.com
12922,"Law Office of Michael Cherewka",mcherewka@cherewkalaw.com
12932,"TimeWorks Professional Organizing",info@lisabrys.com
12942,"Brook Health Care, LLC",info@brookhc.com
12953,"Wellness on Wheels, Inc.",gigi@wellnessonwheels.net
12993,"June's Team/Keller Williams Realty Partners",June@JunesTeam.com
12997,"June's Team/Keller Williams Realty Partners",June@JunesTeam.com
13030,"Law Office of Brian R. Hersh",bhershlaw@att.net
13040,"4Ever Young Living",accounting@4everyoungliving.com
13052,"MasterCare In Home Service Providers",home@mastercareinhomeservices.com
13066,"Burner Law Group, P.C.",mbiggart@burnerlaw.com
13133,"Beatitudes Campus",campusinfo@beatitudescampus.org
13188,"Law Offices of Nancy Catalini Chew",admin@attychew.com
13208,"Changing Tides Home Care",info@changingtides.com
13876,"DocuBank | Worldwide Access 24/7",info@docubank.com
13989,"Lincoln Financial Advisors",attahjundwe.obiajulu@lfg.com
14022,"Love &amp; Blomquist, LLC",planning@lblawkc.com
14070,"Kiplinger &amp; Co., CPAs",don@kiplingerco.com
14087,"Right at Home Bozeman",info@HomeCareBozeman.com
14121,"Angel Companions Senior Care",marketing@angelcompanions.us
14150,"La Bella Legacy Adult Senior Day Program",jlindmar@labellalegacy.com
14171,"Elder Solutions Law Firm",info@elderslf.com
14231,"Elder Law Firm",shelley@shelleyelder.com
14244,"DESIGNS ANEW HOUSTON LLC",bmueller@designsanewhouston.com
14282,"Morana Law Office",info@moranalaw.com
14416,"Cox Law Group, Inc.",cynthia@coxlawgroupinc.com
14449,"Right at Home",Mike@RightatHomeNLC.com
14465,"New Day Pastoral Counseling Services",revcappel@newdaypcs.org
14498,"Levey, Wagley, Putman &amp; Eccher, PA",d.eccher@leveyandwagley.com
14641,"Assisting Hearts Home Care",rruetschle@assistinghearts.com
14651,"Assertive Home Care Services",info@assertivehomecare.com
14808,"Lamb Estate Law Firm, LLC",gwenda@lambestatelawfirm.com
14818,"Boyd &amp; Boyd, P.C.",plan@boydandboydpc.com
14840,"Dominion Senior Living",kims@dominionseniorliving.com
14854,"LawyerLisa, LLC",info@lawyerlisa.com
14884,"Barr Private Care",asmart@barrprivatecare.com
14897,"Branaugh Law Offices, P.C.",Preston@BranaughPC.com
14914,"Familiar Surroundings Home Care -Serving Santa Clara, Santa Cruz, San Mateo, And Contra Costa counties",michael@fshomecare.com
14943,"Wagner Law",brandon@bwagnerlawfirm.com
14958,"Hired Hands Homecare",Mark@HiredHandsHomecare.com
15007,"law office of valorie promisel",vpromisel@msn.com
15017,"Martha C. Brown &amp; Associates, LLC",mcbrown@elderlawstlouis.com
15028,"Oldham and Deitering LLC",Joyce@oldhamdeitering.com
15042,Memory-Lane.tv,moviemaker@memory-lane.tv
15082,"Visiting Angels",lmurphy@visitingangels.com
15097,"Renee J. Wood, PLLC",reneewoodlaw@gmail.com
15146,"Ageless Grace: Anti-Aging Fitness for Body &amp; Brain Health",peggykinst@gmail.com
15158,"Addington Place of Titusville",MarketingDirector@AddingtonPlaceofTitusville.com
15170,"Sullivan Estate Law",Lewis@SullivanEstateLaw.com
15218,"Angelic Nursing &amp; Home Care Registry, Inc.",carecoordinator@angelicregistry.com
15259,"PeopleCare Health Services",johnd@peoplecarehs.com
15277,"Sweeney Legal LLC",sweeneyjohnj@msn.com
15288,"Paglen Law Office",office@paglenlaw.com
15306,"Charleston Financial Planning Consultants",DNelson@CharlestonFP.com
15311,"Ronald W. Hillberg - Attorney",ron@hillberglaw.biz
15341,"Law Offices of Marialta Z. Sparagna",sparagnalaw@comcast.net
15405,"Lifespace Senior Services",jude@lifespaceseniorservices.com
15440,"Commonwealth Community Trust (CCT)",jboutwell@trustcct.org
15461,"David York Home Healthcare Agency, Ltd.",info@davidyorkagency.com
15477,"Pinder Care Home Health LLC",pindercareservice@gmail.com
15620,"CarePatrol of Tucson",lynnh@carepatrol.com
15624,"Home Instead Senior Care",gail.shaheed@homeinstead.com
15628,"Feelwell LLC Homecare and Transportation",feelwellhhc@yahoo.com
15631,"The Rose of Poway",dan@theroseofpoway.com
15647,"Underwood Legal, LLC",matt@underwoodlegal.com
15666,"Heritage Law Office of Wisconsin, LLC",brad@heritagelawwi.com
15669,"Law Office of Dennise L Grayson",assistant@dgraysonlaw.com
15681,"Transitional Care Solutions",mlung@transitionalcares.com
15715,"Legacy Law Firm, P.C. - Bobbi L. Thury, Attorney and Co-Founder",felan@legacylawfirmpc.com
15734,"Basin Law Group, LLC",basin@basinlaw.net
15746,"Royalty Home Care Llc",royaltyhc18@yahoo.com
15780,"Hope for Homes Prograam Inc 501c3",Diana@Hopeforhomesinc.com
15814,"Shalloway &amp; Shalloway, P.A.",aa@shalloway.com
15859,"Alliance of Therapy Specialists, Inc.",johncady@allianceoftherapy.com
15870,"Pamela King Bennion Deville Homes for all your Senior Real Estate needs!",pking@bdhomes.com
15887,"Two Sisters Plus, LLC Estate Cleanouts",TwoSistersPlus@gmail.com
15897,"Hamilton Estate Planning",paul@hamiltonestateplanning.com
15914,"Law Office of Marita Durkin Gray",maritalaw1@aol.com
15931,"Litherland, Kennedy &amp; Associates, APC, Attorneys at Law",info@attorneyoffice.com
15956,"The Baby Boomers' Barrister",skip@babyboomersbarrister.com
15968,"Southeastern Law LLC",office@southeasternlaw.com
15990,"Brown &amp; Lacallade, P.C.",dickbrown@lawyer.com
15995,"Falcon Law Group LLC",rfalcon@falconlawgroup.com
16008,WBeerman.com,williamsr@wbeerman.com
16045,"Northwestern Mutual",scott.granan@nm.com
16064,"Wermerskirchen Law Office, P.A.",mark@mwlawpa.com
16066,"Law Office of Stephen D. Dunegan, PA",steve@duneganlaw.com
16097,"Mcilwain Mobility Solutions INC",chris@mcilwainmobility.com
16101,"Piercey &amp; Associates, Ltd.",kenneth@pierceyassociates.com
16138,"Medicare Health Plan Solutions &amp; Geriatric Care Advocacy",llarson81@yahoo.com
16149,"ACC Adult Home Care of Olmsted Falls",skirkwood@accadulthomecare.com
16159,"The Grodberg Law Firm",hgrodberg@grodberglaw.com
16163,"Arch Creek Senior Care Services inc.",csturrup@acseniorcare.com
16174,"A Hand To Hold Atlanta",dbarron@ahandtohold.com
16196,"Darpel Elder Law Services",matt@darpelelderlaw.com
16220,"Senior Life Management",kari@seniorlifemgmt.com
16224,"Always Best Care",jshifflett@abc-seniors.com
16253,"Brightstar Healthcare of Lawrenceville",carolyn.golden@brightstarcare.com
16268,"MOYNIHAN LYONS PC",info@moynihanlyons.com
16281,"MJ Miller Law Offices",merv@aboutlivingtrusts.com
16292,"The Organizer",claudia@taskier.net
16335,"Blueprint Insurance Advisors",NormaJean@blueprintbenefits.com
16346,"Richard F. Dawahare, Esq.",rfdr@msn.com
16374,"Franklin H. Rainear Jr. Affordable Funeral Service &amp; Cremation",funeralserviceandcremationco@gmail.com
16387,"Fuller, Chlouber &amp; Frizzell, LLP",bgf@legalok.com
16390,"Rischard &amp; Associates, PLLC",info@rischardlaw.com
16418,"Household Guardians",householdguardians@gmail.com
16430,"DMC GROUP",dave@dmcgrouponline.com
16446,"Law Office of Jeffrey Hall, Inc.",jeff@halllawgroup.com
16458,"Anacapa Estate Planning &amp; Elder Law",ClientCare@anacapalaw.com
16470,"ELDirect Senior Care Resources",haley@eldirecthomecare.com
16473,"Port Legal",GREG@PORTLEGAL.COM
16508,"Right at Home",janetk@rah-wcnj.com
16525,"Willi Law Firm, P.C.",jwilli@atxelderlaw.com
16537,"The McCarty Law Practice",maclawatty1@bellsouth.net
16548,"Personal Med Management",personalmedmanagement@gmail.com
16560,"Lambert Care Management, LLC",amandal57@outlook.com
16574,"Matecun, Thomas &amp; Olson, PLC",gmatecun@mtolaw.com
17657,"Pasadena Law Group",jan@pasadenalawgroup.com
17699,"Law Office of Julie Berkowitz",info@elderlawstl.com
17744,"Est8Planning Counsel LLLC",maku@est8planning.com
17783,"The Justus Family of Companies",cmccann@justus.net
17809,"Law Offices of Peter T. Clark, P.C.",pclark@attorneyclark.com
17824,"DOLLARS &amp; SEN$E",dollars-sense@earthlink.net
17827,"Sensible Space LLC",ashodges@outlook.com
17839,"Pharmacogenetics Consultant",brahmasharma@hotmail.com
17864,"Assurance Homecare LLC",Administration@assurancehomecareagency.com
17884,"Checks &amp; Balances, Personal Financial Services, LLC",cindy@checksandbalancesga.com
17902,"Eckert &amp; Krautkramer, LLC",jason@eckertlawllc.com
17924,GetHealthHelp.com,patientadvocate@gethealthhelp.com
17948,"Simon J. Lebo, Partner, Brown, Paindiris &amp; Scott, LLP",Slebo@bpslawyers.com
17959,"Elder Law of Middle Tennessee",j.barry@elmtn.com
17998,"Texas Assurance Care",lynn@txassurancecare.com
18002,"Legacy Elder Law Center",info@legacyelderlaw.com
18041,"Comfort Keepers #860",ck860@comfortkeepers.com
18055,"Cardinal Senior Care",hamid@cardinalseniorcare.com
18066,"Visiting Angels Poway",dgvisitingangels@aol.com
18077,"Herb Chavers, a Professional Law Corporation",Herb@Chaverslaw.com
18099,"Home Care Partners, LLC",jdmiller@homecarepartners.biz
18113,GymLynx.com,contact@gymlynx.com
18173,"Premier Care Management of Georgia",Tracy@PremierCMGA.com
18177,"Home Health Solutions Group",info@hhsgroup.net
18191,"Stacey L. Johnson, PLLC",stacey@sljlawfirm.com
18219,"Clark &amp; Bradshaw, P.C.",amarrin@clark-bradshaw.com
18232,"The Floyd Law firm",mhurst@floydlaw.com
18254,"Legacy Law Firm",philip@planningyourlegacy.com
18283,"STONECIPHER LAW llc",tim@stonecipher.us
18299,"Gayle Pullen - Realtor - Keller Williams Atlanta Perimeter",gaylepullen@kw.com
18336,"Effectiveness Coach, Simplify Our Life",Kimberly@SimplifyOurLife.org
18348,"Alex Kincaid Law",info@alexkincaidlaw.com
18353,"Lifespace Senior Services",jude@lifespaceseniorservices.com
18364,"Porter Place Memory Care",bkelley@anthemmemorycare.com
18370,"Home Care Assistance of San Antonio",smarrow@homecareassistance.com
18381,"William K. Hayes, Esq.",bryan@losangelestrustlaw.com
18402,"law office of dana bowie",danabowie@dbowielaw.com
18407,"Kate Wilde Life and LTC Insurance",katy401@aol.com
18436,"Right at Home Northeast Texas",info@rightathometx.com
18447,"Wombacher Law Office",wcw5123@yahoo.com
18487,"Angelic Nursing &amp; Home Care Registry, Inc.",Carecoordinator@angelicregistry.com
18491,"Short, Setzer, Cowart, P.A.",office@floridaplanninglaw.com
18510,"The Financial Awareness Foundation",v.sabuco@thefinancialawarenessfoundation.org
18526,"Georgia Estate Plan: Worrall Law LLC",steve@georgiaestateplan.com
18539,"The Garrett Law Firm, PLLC",info@elderlawaustin.com
18545,"Full of Heart Companion Care",customerservice@fullofheart.net
18556,"Baker Law Group, LLC",bakerlgadb@gmail.com
18577,"Zack &amp; Schmitz, PLC",office@zackschmitzplc.com
18604,"Michael E. Benoist, Jr., Attorney at Law",mbenoist@mbenoistlaw.com
18615,"Horizon Care Services Inc",info@horizoncareservices.com
18688,"Catholic Charities of Eastern Virginia",mgower@cceva.org
18699,"Comfort Keepers of Johns Creek",CHERYLJOHNSON@COMFORTKEEPERS.COM
18755,"Six8 Advisors, LLC",lwall@six8advisors.com
20033,"Baxter Professional Services LLC",tinabaxter.bpsllc@gmail.com
20099,"Maclean Wealth Planning",Eric@MacleanWealthPlanning.com
20121,"Providence Solutions",PSSocial@provlife.com
20145,"Care Mountain INC",rick@caremountain.com
20152,"Elder Advisory Group LLC",info@elderadvisorygroup.com
20198,"Oasis Senior Advisors #97",awilkinson@youroasisadvisor.com
20218,"Health Insurance Choices",diane@myhic.com
20231,"Oasis Senior Advisors of Coastal OC",SWanamaker@YourOasisAdvisor.com
20257,"Oasis Senior Advisors",aahtes@YourOasisAdvisor.com
20289,"LivHOME, Inc.",sserar@livhome.com
20318,"Elder Life Care Planning, LLC",elena@elderlcp.com
20358,"Flammia Elder Law Firm",Kathleen@flammialaw.com
20370,"Northwest Funeral Care",leonard@northwestfuneralcare.com
20404,"Thomas Walters Law Group - Probate and Estate Attorneys",jennifer.triplett@twestateplanning.law
20407,"Estate Sales Of Champions",jeregt@aol.com
20420,"Island Legal Group LLLC",rhonda@islandlegalgroup.com
20432,"Harkins Law Group LLC",brianharkins35@gmail.com
20454,"Sabrina Winters, Attorney at Law, PLLC",swinters@sabrinawinterslaw.com
20468,"Law Office of Anthony G. Capozzi",anthony.capozzi@lawagc.com
20472,"Collins Realty Group, Inc.",g@collinsrealtygroup.net
20505,"Danda Law Firm",david@daviddanda.com
20524,"Kathy Bate Designs",kathy@kathybatedesigns.com
20535,"Shoffner &amp; Associates",fashoffner@shoffnerassociates.com
20550,"Not The Same Senior Care",info@notthesameseniorcare.com
20575,"Ballay Braud &amp; Colon, PLC",steve@nolaattorneys.com
20577,"Buhrman Law Firm, PC",jrb@buhrmanlaw.com
20580,"Assurance of Care",greersmith1@gmail.com
20595,"Law Office of Betsy Sue Scott",info@bsscottlaw.com
20657,"Salter &amp; Associates, P.C.",bob@saltertax.com
20691,"A Nu Norm Senior Personal Assistant Services, LLC.",anunormstl@gmail.com
20703,"Blueprint Wealth Management",njrector@blueprintwealthbuilder.com
20717,"Davis Miles McGuire Gardner, PLLC",cjohnson@davismiles.com
20740,"Estate Planning Law Center LLC",suzannB@beckett-law.com
20772,"The Traveling Toothbrush Dental Hygiene Practice of Leona Montano, RDHAP",4myteeth@gmail.com
20789,"Elderly Care Law Firm",contact@elderlycarelawfirm.com
20807,"Boyle &amp; Anderson, P.C.",jpmclane@boylefirm.com
20820,"a•bridge: Aging Life Care™ Management",abbie@abridgeaginglifecare.com
20860,"Talem Home Care &amp; Placement Services",c.cabrera@talemhc.com
20928,"Grace Home Care &amp; Behavioral Services",gracehomecaregeorgia@gmail.com
20948,"Fine Future Financial",dondurr@finefuturefinancial.com
20951,"Brandywine Senior Transitions, LLC",info@BrandywineSeniorTransitions.com
20963,"Baystate Financial",Scunha@baystatefinancial.com
21026,"Trust Properties USA",paul@trustpropertiesusa.com
21046,"First Financial Group",akampf@ffgadvisors.com
21060,"Law Offices of R. Christine Brown, APC",christine@southbayelderlaw.com
21075,"Phillips, Krause &amp; Brown",jbrown@pkblaw.com
21104,"Kabb Law Firm",kabblaw@ameritech.net
21115,"LiveWell Southwest Florida",andrew@livewellswfl.com
21127,"Bayham &amp; Associates Insurance Services",marian@lovingltc.com
21159,"Valley View Senior Independent Living",valleyviewgreeneia@gmail.com
21177,"Mother Gaia's - Senior Fitness, Wellness, &amp; Aromatherapy",info@mothergaias.com
21190,"The Estate &amp; Elder Law Center of Southside Virginia, PLLC (Attorney Robert W. Haley)",mrorrer@vaelderlaw.com
21213,"Law Office of Jeffrey C. Nickerson",Info@JeffNickLaw.com
21273,"Finkel &amp; Fernandez, LLP",ffinkel@ffelderlaw.com
21333,"Biltmore Health Insurance Solutions",diane@senioradvisors123.com
21349,lotusfootcare.com,lotus.home.sf@gmail.com
21422,"Debe Gillespie, CPA",forensics@roadrunner.com
21434,"Stubbs &amp; Perdue",jking@stubbsperdue.com
21467,"Geriatric House Call Dentistry",dralisakauffman@gmail.com
21507,"All County Funeral Home &amp; Crematory",info@allcounty.com
21524,"Burke &amp; Casserly, P.C.",cbardin@burkecasserly.com
21544,"Henry Buy Houses Birmingham",hhoward470@rijekasunlimitedinc.com
21556,"Mark M. Jones and Associates, RLLP",markjones@mmj-cpas.com
21567,"Right at Home MidCities",lorrip@rahmidcities.com
21578,"Encore Life Health",joyce@encorelifehealth.com
21590,"FINESTONE PARTNERS",Neil@FinestonePartners.com
21593,"Revelation Real Estate",ramonaazrealestate@gmail.com
21605,"Homestyle Direct",info@homestyledirect.com
21617,"Checki Financial",johnjcheckijr@sbcglobal.net
21675,"Premier Fiduciary Services LLC",kurt@azfiduciaries.com
21679,"Home Instead Senior Care",jeff.shiovitz@homeinstead.com
21719,"Davenport, Evans, Hurwitz &amp; Smith, LLP",ctanck@dehs.com
21742,"Edward M. Gardner PC CPA",EDGARDNER@MSN.COM
21754,"HappyChoice Home Care LLC",happychoicehomecare@gmail.com
23018,"Visiting Angels Frederick",office.frederick@visitingangels.com
23052,"Jay Nauta / Fairway Independent Mortgage Corporation NMLS ID # 2289",jay@mooreteam.biz
23090,"Plan Right Law",colton@planrightlaw.com
23244,"Sheila Gail Cohen, LUTCF, Inc.",sheila.g.cohen.ins@att.net
23256,"Attentive Home Care, Inc.",rick@attentivecare.com
23301,"Personal Financial Care LLC",phyllis@personalfinancialcare.com
23313,"Changing Keys by Susan",susan@changingkeysbysusan.com
23342,"CRS Medical Staffing &amp; Services LLC",chris@crsmedstaff.com
23399,"A Clear Path: Professional Organizing and Productivity",regina@aclearpath.net
23411,"Angiuli &amp; Gentile, LLP",agentile@aglawnyc.com
23437,"Easy Living Services, Inc.",debby@easylivingservices.com
23449,"The Law Office of Jeffrey M. Janeiro",kristind@jjlawyers.com
23481,"Les Nesmith, CPA/PFS",lesnesmithcpa@hotmail.com
23484,"Kokua Mau",info@kokuamau.org
23529,"Senior Resource Connections",srcPwesson@gmail.com
23548,"Andrea L. Jakob, PA",andrea@jakoblegal.com
23568,"Law Office of Kimberly C. Harris, LLC",kim@kcharrislegal.com
23578,"The Brinkley Law Firm, P.C.",dbrinkley@ctclaw.com
23617,"Advanced Care Transportation",lwilliams@actexpinc.com
23620,"Murphy &amp; Berglund, PLLC",Melissa@murphyberglund.com
23662,"Northwestern Mutual / ELCO Mutual",ed.lough@nm.com
23664,"Ebisch Law Firm",jebisch@ebischlaw.com
23676,"Silver Companions Inc.",Brian@silvercompanionsga.com
23688,"Solomon, Steiner &amp; Peck, Ltd.",tking@ssandplaw.com
23707,"Right at Home Austin West",info@rahaustinwest.com
23727,"Craig Associates, PC",craigassociates@gmail.com
23738,"Schock Solaiman Ramdayal PLLC",ben@ssrlawoffice.com
23744,"Caring Senior Service New Braunfels",newbraunfels@caringinc.com
23755,"Kaeble Law LLC",info@kaeblelaw.com
23766,"United Methodist Communities at Bristol Glen",BG-Contact@UMCommunities.org
23778,"Visiting Angels Living Assistance Services",visitingangelshbg@comcast.net
23791,"The Reutlinger Community",acampisi@rcjl.org
23794,"Law Office of Sally Bergman",Sally@SallyBergmanLaw.com
23805,"Moonan, Stratton &amp; Waldman, LLP",kmoonan@mswri.com
23816,"Law Office of Kristin Lillquist Reeder, PLLC",contact@klrlaw.net
23835,"Right at Home",Chris@inhomecarephx.com
23854,"Leonard Weiner Law, PLLC",lw@lweinerlaw.com
23864,"Lyman Law Office",keith@lymanlawaz.com
23881,"Elite Cruises And Vacations LLC",Kathy@EliteCruisesAndVacationsTravel.com
23912,"SelectCare Home Care Services",carlaholub@selectcarenyc.com
23931,"Gold Canyon Care Home",stolzatgoldcanyon@yahoo.com
23941,"Geisler Patterson Law",mjplawmom@gmail.com
23961,"Lios Manhe LLC Expert Witnesses",regattanc@yahoo.com
23973,"Agent of Peace, LLC",hehaynes053@yahoo.com
23983,"Brightwell Elder &amp; Probate Law",bbrightwell@spplegal.com
23994,"Talem Home Care",e.sauer@talemhc.com
24017,"Kiya's &amp; Kethan's Haven Assisted Living",kiyas_haven@yahoo.com
24020,"Kiya's &amp; Kethan's Haven Assisted Living",kiyas_haven@yahoo.com
24034,"Beavers Law, P.C.",Kristina@beaverslaw.com
24053,"Gina Gonzalez Group @ Keller Williams Legacy - Mature Living Division",support@MatureLivingHomes.com
24102,"SmithTaire Legal, LLC",jtaire@tairelaw.com
24123,"Anointed Hands 4 Cleaning LLc",ah4cleaning@highhopellc.com
24135,"Anointed Hands 4 Caring",ah4c.director@highhopellc.com
24147,"United Methodist Communities HomeWorks",info@umcommunities.org
24160,"Mimi Kapiloff",mskapiloff@gmail.com
24172,"Farr Law Firm",evanfarr@farrlawfirm.com
24193,"Parsons Law, P.C.",dparsons@dparsonslaw.com
24195,"Answers For Medicare",joel@answersformedicare.com
24217,"The Investment Advisor, LLC",informationexchange2@yahoo.com
24229,"GBE Packaging Supplies",gbepackaging@wi.rr.com
24232,"Right at Home San Marcos",info@rahsanmarcos.com
24246,"Farr Law Firm",evanfarr@gmail.com
24429,"ASK...for Home Care",katrina@askforhomecare.com
24442,"Homeshare, Inc.",reception@askforhomecare.com
