2019-09-05T07:11:10+00:00 DEBUG 
====Stripe Version: 4.1.16====
====Start Log====
sources/src_1FEcBuFRTZJc7S84C7kvuDXJ
====End Log====


2019-09-05T07:11:11+00:00 DEBUG 
====Stripe Version: 4.1.16====
====Start Log====
Info: Begin processing subscription payment for order 26016 for the amount of 59.00
====End Log====


2019-09-05T07:11:11+00:00 DEBUG 
====Stripe Version: 4.1.16====
====Start Log====
charges request: Array
(
    [currency] => usd
    [amount] => 5900
    [description] => Elder Care Matters - America's Directory of Elder Care / Senior Care Resources - Order 26016
    [statement_descriptor] => ElderCare Matters
    [capture] => true
    [expand[]] => balance_transaction
    [metadata] => Array
        (
            [customer_name] => Gregory Port
            [customer_email] => GREG@PORTLEGAL.COM
            [order_id] => 26016
            [payment_type] => recurring
            [site_url] => http://eldercarematters.com
        )

    [customer] => cus_EwfxcG9aSLBxl6
    [source] => src_1FEcBuFRTZJc7S84C7kvuDXJ
)

====End Log====


2019-09-05T07:11:12+00:00 DEBUG 
====Stripe Version: 4.1.16====
====Start Log====
Processing response: stdClass Object
(
    [id] => ch_1FFF7bFRTZJc7S84TsHryUww
    [object] => charge
    [amount] => 5900
    [amount_refunded] => 0
    [application] => 
    [application_fee] => 
    [application_fee_amount] => 
    [balance_transaction] => stdClass Object
        (
            [id] => txn_1FFF7cFRTZJc7S84cvt4dwzh
            [object] => balance_transaction
            [amount] => 5900
            [available_on] => 1567987200
            [created] => 1567667471
            [currency] => usd
            [description] => Elder Care Matters - America's Directory of Elder Care / Senior Care Resources - Order 26016
            [exchange_rate] => 
            [fee] => 201
            [fee_details] => Array
                (
                    [0] => stdClass Object
                        (
                            [amount] => 201
                            [application] => 
                            [currency] => usd
                            [description] => Stripe processing fees
                            [type] => stripe_fee
                        )

                )

            [net] => 5699
            [source] => ch_1FFF7bFRTZJc7S84TsHryUww
            [status] => pending
            [type] => charge
        )

    [billing_details] => stdClass Object
        (
            [address] => stdClass Object
                (
                    [city] => 
                    [country] => 
                    [line1] => 
                    [line2] => 
                    [postal_code] => 
                    [state] => 
                )

            [email] => GREG@PORTLEGAL.COM
            [name] => Gregory Port, M.B.A, J.D.
            [phone] => 
        )

    [captured] => 1
    [created] => 1567667471
    [currency] => usd
    [customer] => cus_EwfxcG9aSLBxl6
    [description] => Elder Care Matters - America's Directory of Elder Care / Senior Care Resources - Order 26016
    [destination] => 
    [dispute] => 
    [failure_code] => 
    [failure_message] => 
    [fraud_details] => stdClass Object
        (
        )

    [invoice] => 
    [livemode] => 1
    [metadata] => stdClass Object
        (
            [customer_name] => Gregory Port
            [customer_email] => GREG@PORTLEGAL.COM
            [order_id] => 26016
            [payment_type] => recurring
            [site_url] => http://eldercarematters.com
        )

    [on_behalf_of] => 
    [order] => 
    [outcome] => stdClass Object
        (
            [network_status] => approved_by_network
            [reason] => 
            [risk_level] => normal
            [seller_message] => Payment complete.
            [type] => authorized
        )

    [paid] => 1
    [payment_intent] => 
    [payment_method] => src_1FEcBuFRTZJc7S84C7kvuDXJ
    [payment_method_details] => stdClass Object
        (
            [card] => stdClass Object
                (
                    [brand] => mastercard
                    [checks] => stdClass Object
                        (
                            [address_line1_check] => 
                            [address_postal_code_check] => 
                            [cvc_check] => 
                        )

                    [country] => US
                    [exp_month] => 9
                    [exp_year] => 2021
                    [fingerprint] => bBzvkblpIepCvvf6
                    [funding] => debit
                    [last4] => 4516
                    [three_d_secure] => 
                    [wallet] => 
                )

            [type] => card
        )

    [receipt_email] => 
    [receipt_number] => 
    [receipt_url] => https://pay.stripe.com/receipts/acct_1AsxCoFRTZJc7S84/ch_1FFF7bFRTZJc7S84TsHryUww/rcpt_Fkkce2zJNbkriLpSq7XCXE0gn2psIMm
    [refunded] => 
    [refunds] => stdClass Object
        (
            [object] => list
            [data] => Array
                (
                )

            [has_more] => 
            [total_count] => 0
            [url] => /v1/charges/ch_1FFF7bFRTZJc7S84TsHryUww/refunds
        )

    [review] => 
    [shipping] => 
    [source] => stdClass Object
        (
            [id] => src_1FEcBuFRTZJc7S84C7kvuDXJ
            [object] => source
            [amount] => 
            [card] => stdClass Object
                (
                    [exp_month] => 9
                    [exp_year] => 2021
                    [last4] => 4516
                    [country] => US
                    [brand] => MasterCard
                    [funding] => debit
                    [fingerprint] => bBzvkblpIepCvvf6
                    [three_d_secure] => optional
                    [name] => 
                    [address_line1_check] => 
                    [address_zip_check] => 
                    [cvc_check] => 
                    [tokenization_method] => 
                    [dynamic_last4] => 
                )

            [client_secret] => src_client_secret_Fk6OA4nYw8b68StBYN6NOeiJ
            [created] => 1567667472
            [currency] => 
            [customer] => cus_EwfxcG9aSLBxl6
            [flow] => none
            [livemode] => 1
            [metadata] => stdClass Object
                (
                )

            [owner] => stdClass Object
                (
                    [address] => 
                    [email] => GREG@PORTLEGAL.COM
                    [name] => Gregory Port, M.B.A, J.D.
                    [phone] => 
                    [verified_address] => 
                    [verified_email] => 
                    [verified_name] => 
                    [verified_phone] => 
                )

            [statement_descriptor] => 
            [status] => chargeable
            [type] => card
            [usage] => reusable
        )

    [source_transfer] => 
    [statement_descriptor] => ElderCare Matters
    [statement_descriptor_suffix] => ElderCare Matters
    [status] => succeeded
    [transfer_data] => 
    [transfer_group] => 
)

====End Log====


2019-09-05T07:16:39+00:00 DEBUG 
====Stripe Version: 4.1.16====
====Start Log====
sources/src_1ET87IFRTZJc7S84WyYvAKek
====End Log====


2019-09-05T07:16:40+00:00 DEBUG 
====Stripe Version: 4.1.16====
====Start Log====
Info: Begin processing subscription payment for order 26043 for the amount of 59.00
====End Log====


2019-09-05T07:16:40+00:00 DEBUG 
====Stripe Version: 4.1.16====
====Start Log====
charges request: Array
(
    [currency] => usd
    [amount] => 5900
    [description] => Elder Care Matters - America's Directory of Elder Care / Senior Care Resources - Order 26043
    [statement_descriptor] => ElderCare Matters
    [capture] => true
    [expand[]] => balance_transaction
    [metadata] => Array
        (
            [customer_name] => Mary Kay Furiasse
            [customer_email] => mk@azhealthelderlaw.com
            [order_id] => 26043
            [payment_type] => recurring
            [site_url] => https://eldercarematters.com
        )

    [customer] => cus_Ex2BOy0IyunM9v
    [source] => src_1ET87IFRTZJc7S84WyYvAKek
)

====End Log====


2019-09-05T07:16:41+00:00 DEBUG 
====Stripe Version: 4.1.16====
====Start Log====
sources/src_1ET87IFRTZJc7S84WyYvAKek
====End Log====


2019-09-05T07:16:42+00:00 DEBUG 
====Stripe Version: 4.1.16====
====Start Log====
Info: Begin processing subscription payment for order 26043 for the amount of 59.00
====End Log====


2019-09-05T07:16:42+00:00 DEBUG 
====Stripe Version: 4.1.16====
====Start Log====
charges request: Array
(
    [currency] => usd
    [amount] => 5900
    [description] => Elder Care Matters - America's Directory of Elder Care / Senior Care Resources - Order 26043
    [statement_descriptor] => ElderCare Matters
    [capture] => true
    [expand[]] => balance_transaction
    [metadata] => Array
        (
            [customer_name] => Mary Kay Furiasse
            [customer_email] => mk@azhealthelderlaw.com
            [order_id] => 26043
            [payment_type] => recurring
            [site_url] => https://eldercarematters.com
        )

    [customer] => cus_Ex2BOy0IyunM9v
    [source] => src_1ET87IFRTZJc7S84WyYvAKek
)

====End Log====


2019-09-05T07:16:44+00:00 DEBUG 
====Stripe Version: 4.1.16====
====Start Log====
sources/src_1ET87IFRTZJc7S84WyYvAKek
====End Log====


2019-09-05T07:16:44+00:00 DEBUG 
====Stripe Version: 4.1.16====
====Start Log====
Info: Begin processing subscription payment for order 26043 for the amount of 59.00
====End Log====


2019-09-05T07:16:44+00:00 DEBUG 
====Stripe Version: 4.1.16====
====Start Log====
charges request: Array
(
    [currency] => usd
    [amount] => 5900
    [description] => Elder Care Matters - America's Directory of Elder Care / Senior Care Resources - Order 26043
    [statement_descriptor] => ElderCare Matters
    [capture] => true
    [expand[]] => balance_transaction
    [metadata] => Array
        (
            [customer_name] => Mary Kay Furiasse
            [customer_email] => mk@azhealthelderlaw.com
            [order_id] => 26043
            [payment_type] => recurring
            [site_url] => https://eldercarematters.com
        )

    [customer] => cus_Ex2BOy0IyunM9v
    [source] => src_1ET87IFRTZJc7S84WyYvAKek
)

====End Log====


2019-09-05T07:16:48+00:00 DEBUG 
====Stripe Version: 4.1.16====
====Start Log====
sources/src_1ET87IFRTZJc7S84WyYvAKek
====End Log====


2019-09-05T07:16:48+00:00 DEBUG 
====Stripe Version: 4.1.16====
====Start Log====
Info: Begin processing subscription payment for order 26043 for the amount of 59.00
====End Log====


2019-09-05T07:16:48+00:00 DEBUG 
====Stripe Version: 4.1.16====
====Start Log====
charges request: Array
(
    [currency] => usd
    [amount] => 5900
    [description] => Elder Care Matters - America's Directory of Elder Care / Senior Care Resources - Order 26043
    [statement_descriptor] => ElderCare Matters
    [capture] => true
    [expand[]] => balance_transaction
    [metadata] => Array
        (
            [customer_name] => Mary Kay Furiasse
            [customer_email] => mk@azhealthelderlaw.com
            [order_id] => 26043
            [payment_type] => recurring
            [site_url] => https://eldercarematters.com
        )

    [customer] => cus_Ex2BOy0IyunM9v
    [source] => src_1ET87IFRTZJc7S84WyYvAKek
)

====End Log====


2019-09-05T07:16:52+00:00 DEBUG 
====Stripe Version: 4.1.16====
====Start Log====
sources/src_1ET87IFRTZJc7S84WyYvAKek
====End Log====


2019-09-05T07:16:53+00:00 DEBUG 
====Stripe Version: 4.1.16====
====Start Log====
Info: Begin processing subscription payment for order 26043 for the amount of 59.00
====End Log====


2019-09-05T07:16:53+00:00 DEBUG 
====Stripe Version: 4.1.16====
====Start Log====
charges request: Array
(
    [currency] => usd
    [amount] => 5900
    [description] => Elder Care Matters - America's Directory of Elder Care / Senior Care Resources - Order 26043
    [statement_descriptor] => ElderCare Matters
    [capture] => true
    [expand[]] => balance_transaction
    [metadata] => Array
        (
            [customer_name] => Mary Kay Furiasse
            [customer_email] => mk@azhealthelderlaw.com
            [order_id] => 26043
            [payment_type] => recurring
            [site_url] => https://eldercarematters.com
        )

    [customer] => cus_Ex2BOy0IyunM9v
    [source] => src_1ET87IFRTZJc7S84WyYvAKek
)

====End Log====


2019-09-05T07:16:53+00:00 DEBUG 
====Stripe Version: 4.1.16====
====Start Log====
sources/src_1ET87IFRTZJc7S84WyYvAKek
====End Log====


2019-09-05T07:16:53+00:00 DEBUG 
====Stripe Version: 4.1.16====
====Start Log====
Info: Begin processing subscription payment for order 26043 for the amount of 59.00
====End Log====


2019-09-05T07:16:53+00:00 DEBUG 
====Stripe Version: 4.1.16====
====Start Log====
charges request: Array
(
    [currency] => usd
    [amount] => 5900
    [description] => Elder Care Matters - America's Directory of Elder Care / Senior Care Resources - Order 26043
    [statement_descriptor] => ElderCare Matters
    [capture] => true
    [expand[]] => balance_transaction
    [metadata] => Array
        (
            [customer_name] => Mary Kay Furiasse
            [customer_email] => mk@azhealthelderlaw.com
            [order_id] => 26043
            [payment_type] => recurring
            [site_url] => https://eldercarematters.com
        )

    [customer] => cus_Ex2BOy0IyunM9v
    [source] => src_1ET87IFRTZJc7S84WyYvAKek
)

====End Log====


2019-09-05T07:16:54+00:00 DEBUG 
====Stripe Version: 4.1.16====
====Start Log====
Error: stdClass Object
(
    [error] => stdClass Object
        (
            [code] => resource_missing
            [doc_url] => https://stripe.com/docs/error-codes/resource-missing
            [message] => No such customer: cus_Ex2BOy0IyunM9v
            [param] => customer
            [type] => invalid_request_error
        )

)

====End Log====


2019-09-05T07:37:19+00:00 DEBUG 
====Stripe Version: 4.1.16====
====Start Log====
sources/src_1Eu1hYFRTZJc7S842faCHYwy
====End Log====


2019-09-05T07:37:19+00:00 DEBUG 
====Stripe Version: 4.1.16====
====Start Log====
Info: Begin processing subscription payment for order 26635 for the amount of 29.00
====End Log====


2019-09-05T07:37:19+00:00 DEBUG 
====Stripe Version: 4.1.16====
====Start Log====
charges request: Array
(
    [currency] => usd
    [amount] => 2900
    [description] => Elder Care Matters - America's Directory of Elder Care / Senior Care Resources - Order 26635
    [statement_descriptor] => ElderCare Matters
    [capture] => true
    [expand[]] => balance_transaction
    [metadata] => Array
        (
            [customer_name] => Terri Maxeiner
            [customer_email] => PSSocial@provlife.com
            [order_id] => 26635
            [payment_type] => recurring
            [site_url] => http://eldercarematters.com
        )

    [customer] => cus_FOpMQCeKgNczZk
    [source] => src_1Eu1hYFRTZJc7S842faCHYwy
)

====End Log====


2019-09-05T07:37:22+00:00 DEBUG 
====Stripe Version: 4.1.16====
====Start Log====
Error: stdClass Object
(
    [error] => stdClass Object
        (
            [charge] => ch_1FFFWuFRTZJc7S84LMHeXstW
            [code] => card_declined
            [decline_code] => do_not_honor
            [doc_url] => https://stripe.com/docs/error-codes/card-declined
            [message] => Your card was declined.
            [type] => card_error
        )

)

====End Log====


2019-09-05T08:08:19+00:00 DEBUG 
====Stripe Version: 4.1.16====
====Start Log====
sources/card_1BkxUyFRTZJc7S84qaD3gIHq
====End Log====


2019-09-05T08:08:19+00:00 DEBUG 
====Stripe Version: 4.1.16====
====Start Log====
Info: Begin processing subscription payment for order 27257 for the amount of 29.00
====End Log====


2019-09-05T08:08:19+00:00 DEBUG 
====Stripe Version: 4.1.16====
====Start Log====
charges request: Array
(
    [currency] => usd
    [amount] => 2900
    [description] => Elder Care Matters - America's Directory of Elder Care / Senior Care Resources - Order 27257
    [statement_descriptor] => ElderCare Matters
    [capture] => true
    [expand[]] => balance_transaction
    [metadata] => Array
        (
            [customer_name] => Mary Ellen Leslie
            [customer_email] => meleslie@raex.com
            [order_id] => 27257
            [payment_type] => recurring
            [site_url] => https://eldercarematters.com
        )

    [customer] => cus_C9G1ssxHNl5MCy
    [source] => card_1BkxUyFRTZJc7S84qaD3gIHq
)

====End Log====


2019-09-05T08:08:21+00:00 DEBUG 
====Stripe Version: 4.1.16====
====Start Log====
Error: stdClass Object
(
    [error] => stdClass Object
        (
            [charge] => ch_1FFG0tFRTZJc7S84K830cgjm
            [code] => card_declined
            [decline_code] => do_not_honor
            [doc_url] => https://stripe.com/docs/error-codes/card-declined
            [message] => Your card was declined.
            [type] => card_error
        )

)

====End Log====


2019-09-05T08:12:40+00:00 DEBUG 
====Stripe Version: 4.1.16====
====Start Log====
sources/src_1DoBS6FRTZJc7S844E6WCcfi
====End Log====


2019-09-05T08:12:40+00:00 DEBUG 
====Stripe Version: 4.1.16====
====Start Log====
Info: Begin processing subscription payment for order 27298 for the amount of 29.00
====End Log====


2019-09-05T08:12:40+00:00 DEBUG 
====Stripe Version: 4.1.16====
====Start Log====
charges request: Array
(
    [currency] => usd
    [amount] => 2900
    [description] => Elder Care Matters - America's Directory of Elder Care / Senior Care Resources - Order 27298
    [statement_descriptor] => ElderCare Matters
    [capture] => true
    [expand[]] => balance_transaction
    [metadata] => Array
        (
            [customer_name] => Patricia Dudek
            [customer_email] => pdudek@pekdadvocacy.com
            [order_id] => 27298
            [payment_type] => recurring
            [site_url] => http://eldercarematters.com
        )

    [customer] => cus_CFQ85TrXieztMb
    [source] => src_1DoBS6FRTZJc7S844E6WCcfi
)

====End Log====


2019-09-05T08:12:42+00:00 DEBUG 
====Stripe Version: 4.1.16====
====Start Log====
Error: stdClass Object
(
    [error] => stdClass Object
        (
            [charge] => ch_1FFG56FRTZJc7S84ShxaS6bw
            [code] => card_declined
            [decline_code] => do_not_honor
            [doc_url] => https://stripe.com/docs/error-codes/card-declined
            [message] => Your card was declined.
            [type] => card_error
        )

)

====End Log====


2019-09-05T13:46:13+00:00 DEBUG 
====Stripe Version: 4.1.16====
====Start Log====
customers/cus_CFQ85TrXieztMb/sources request: Array
(
    [limit] => 100
)

====End Log====


2019-09-05T13:46:17+00:00 DEBUG 
====Stripe Version: 4.1.16====
====Start Log====
customers/cus_CFQ85TrXieztMb/sources request: Array
(
    [limit] => 100
)

====End Log====


2019-09-05T14:37:44+00:00 DEBUG 
====Stripe Version: 4.1.16====
====Start Log====
sources/src_1FFM5hFRTZJc7S84s9RL36ui
====End Log====


2019-09-05T14:37:44+00:00 DEBUG 
====Stripe Version: 4.1.16====
====Start Log====
customers/cus_CFQ85TrXieztMb/sources request: Array
(
    [source] => src_1FFM5hFRTZJc7S84s9RL36ui
)

====End Log====


2019-09-05T14:37:47+00:00 DEBUG 
====Stripe Version: 4.1.16====
====Start Log====
customers/cus_CFQ85TrXieztMb request: Array
(
    [default_source] => src_1FFM5hFRTZJc7S84s9RL36ui
)

====End Log====


2019-09-05T14:37:47+00:00 DEBUG 
====Stripe Version: 4.1.16====
====Start Log====
customers/cus_CFQ85TrXieztMb/sources request: Array
(
    [limit] => 100
)

====End Log====


2019-09-05T14:38:19+00:00 DEBUG 
====Stripe Version: 4.1.16====
====Start Log====
customers/cus_CFQ85TrXieztMb/sources request: Array
(
    [limit] => 100
)

====End Log====


2019-09-05T14:38:25+00:00 DEBUG 
====Stripe Version: 4.1.16====
====Start Log====
customers/cus_CFQ85TrXieztMb/sources/src_1DoBS6FRTZJc7S844E6WCcfi request: Array
(
)

====End Log====


